<?xml version="1.0" encoding="UTF-8" standalone="no"?>
<!-- Created with Inkscape (http://www.inkscape.org/) -->

<svg
   xmlns:dc="http://purl.org/dc/elements/1.1/"
   xmlns:cc="http://creativecommons.org/ns#"
   xmlns:rdf="http://www.w3.org/1999/02/22-rdf-syntax-ns#"
   xmlns:svg="http://www.w3.org/2000/svg"
   xmlns="http://www.w3.org/2000/svg"
   xmlns:xlink="http://www.w3.org/1999/xlink"
   xmlns:sodipodi="http://sodipodi.sourceforge.net/DTD/sodipodi-0.dtd"
   xmlns:inkscape="http://www.inkscape.org/namespaces/inkscape"
   width="1231.1304"
   height="900"
   id="svg5205"
   version="1.1"
   inkscape:version="0.48.3.1 r9886"
   sodipodi:docname="Saggital.svg">
  <defs
     id="defs5207">
    <marker
       inkscape:stockid="Arrow1Mend"
       orient="auto"
       refY="0"
       refX="0"
       id="Arrow1Mend-4"
       style="overflow:visible">
      <path
         inkscape:connector-curvature="0"
         id="path4397-4"
         d="M 0,0 5,-5 -12.5,0 5,5 0,0 z"
         style="fill-rule:evenodd;stroke:#000000;stroke-width:1pt"
         transform="matrix(-0.4,0,0,-0.4,-4,0)" />
    </marker>
    <marker
       inkscape:stockid="Arrow1Mend"
       orient="auto"
       refY="0"
       refX="0"
       id="Arrow1Mend"
       style="overflow:visible">
      <path
         id="path4397"
         d="M 0,0 5,-5 -12.5,0 5,5 0,0 z"
         style="fill-rule:evenodd;stroke:#000000;stroke-width:1pt"
         transform="matrix(-0.4,0,0,-0.4,-4,0)"
         inkscape:connector-curvature="0" />
    </marker>
    <marker
       inkscape:stockid="Arrow1Mend"
       orient="auto"
       refY="0"
       refX="0"
       id="marker5521"
       style="overflow:visible">
      <path
         id="path5523"
         d="M 0,0 5,-5 -12.5,0 5,5 0,0 z"
         style="fill-rule:evenodd;stroke:#000000;stroke-width:1pt"
         transform="matrix(-0.4,0,0,-0.4,-4,0)"
         inkscape:connector-curvature="0" />
    </marker>
    <marker
       inkscape:stockid="Arrow1Mend"
       orient="auto"
       refY="0"
       refX="0"
       id="Arrow1Mend-4-5"
       style="overflow:visible">
      <path
         inkscape:connector-curvature="0"
         id="path4397-4-7"
         d="M 0,0 5,-5 -12.5,0 5,5 0,0 z"
         style="fill-rule:evenodd;stroke:#000000;stroke-width:1pt"
         transform="matrix(-0.4,0,0,-0.4,-4,0)" />
    </marker>
  </defs>
  <sodipodi:namedview
     id="base"
     pagecolor="#ffffff"
     bordercolor="#666666"
     borderopacity="1.0"
     inkscape:pageopacity="0.0"
     inkscape:pageshadow="2"
     inkscape:zoom="0.7"
     inkscape:cx="527.50897"
     inkscape:cy="331.34337"
     inkscape:document-units="px"
     inkscape:current-layer="layer1"
     showgrid="false"
     inkscape:window-width="1920"
     inkscape:window-height="1176"
     inkscape:window-x="0"
     inkscape:window-y="24"
     inkscape:window-maximized="1"
     fit-margin-top="0"
     fit-margin-left="0"
     fit-margin-right="0"
     fit-margin-bottom="0" />
  <metadata
     id="metadata5210">
    <rdf:RDF>
      <cc:Work
         rdf:about="">
        <dc:format>image/svg+xml</dc:format>
        <dc:type
           rdf:resource="http://purl.org/dc/dcmitype/StillImage" />
        <dc:title />
      </cc:Work>
    </rdf:RDF>
  </metadata>
  <g
     inkscape:label="Layer 1"
     inkscape:groupmode="layer"
     id="layer1"
     transform="translate(222.85715,-60.933617)">
    <image
       y="60.933617"
       x="-222.85715"
       id="image5221"
       xlink:href="data:image/jpeg;base64,/9j/4AAQSkZJRgABAQAAAQABAAD/2wBDAAgGBgcGBQgHBwcJCQgKDBQNDAsLDBkSEw8UHRofHh0a HBwgJC4nICIsIxwcKDcpLDAxNDQ0Hyc5PTgyPC4zNDL/2wBDAQkJCQwLDBgNDRgyIRwhMjIyMjIy MjIyMjIyMjIyMjIyMjIyMjIyMjIyMjIyMjIyMjIyMjIyMjIyMjIyMjIyMjL/wAARCAOEBLADASIA AhEBAxEB/8QAHwAAAQUBAQEBAQEAAAAAAAAAAAECAwQFBgcICQoL/8QAtRAAAgEDAwIEAwUFBAQA AAF9AQIDAAQRBRIhMUEGE1FhByJxFDKBkaEII0KxwRVS0fAkM2JyggkKFhcYGRolJicoKSo0NTY3 ODk6Q0RFRkdISUpTVFVWV1hZWmNkZWZnaGlqc3R1dnd4eXqDhIWGh4iJipKTlJWWl5iZmqKjpKWm p6ipqrKztLW2t7i5usLDxMXGx8jJytLT1NXW19jZ2uHi4+Tl5ufo6erx8vP09fb3+Pn6/8QAHwEA AwEBAQEBAQEBAQAAAAAAAAECAwQFBgcICQoL/8QAtREAAgECBAQDBAcFBAQAAQJ3AAECAxEEBSEx BhJBUQdhcRMiMoEIFEKRobHBCSMzUvAVYnLRChYkNOEl8RcYGRomJygpKjU2Nzg5OkNERUZHSElK U1RVVldYWVpjZGVmZ2hpanN0dXZ3eHl6goOEhYaHiImKkpOUlZaXmJmaoqOkpaanqKmqsrO0tba3 uLm6wsPExcbHyMnK0tPU1dbX2Nna4uPk5ebn6Onq8vP09fb3+Pn6/9oADAMBAAIRAxEAPwD3+iii gAooooAKKKKACiiigAooooAKKKKACiiigAooooAKKKKACiiigAooooAKKKKACiiigAooooAKKKKA CiiigAooooAKKKKACiiigAooooAKKKKACiiigAooooAKKKKACiiigAooooAKKKKACiiigAooooAK KKKACiiigAooooAKKKKACiiigAooooAKKKKACiiigAooooAKKKKACiiigAooooAKKKKACiiigAoo ooAKKKKACiiigAooooAKKKKACiiigAooooAKKKKACiiigAooooAKKKKACiiigAooooAKKKKACiii gAooooAKKKKACiiigAooooAKKKKACiiigAooooAKKKKACiiigAooooAKKKKACiiigAooooAKKKKA CiiigAooooAKKKKACiiigAooooAKKKKACiiigAooooAKKKKACiiigAooooAKKKKACiiigAooooAK KKKACiiigAooooAKKKKACiiigAooooAKKKKACiiigAooooAKKKKACiiigAooooAKKKKACiiigAoo ooAKKKKACiiigAooooAKKKKACiimswVSzEAAZJPagB1FZlj4g0XU7lrfT9YsLudPvRW9ykjL9Qpr ToAKKKKACiiigAooooAKKo3er6ZYXVta3mo2ltcXLBIIpp1R5STgBQTljkgcVNcXlraGEXNzDAZ5 RDCJHC+ZIckKuerHB4HpQBYoqveXlrp9pJdXtzDbW0Yy80zhEUepY8CrFABRRRQAUUVn3+t6TpUk Ueo6pZWby/6tbi4WMv8ATceaANCimqyuoZSCpGQR0NOoAKKKihniuUMkEscqB2jLIwYBlYqw47hg QR2INAEtFFFABRUJniW4S3aaMTurOkZYBmVSoYgdwCy5P+0PWoNS1bTtHtluNT1C1sYGfy1kupli UtgnALEDOAePagC7RWba69o97YzX1pq1jcWcALTXEVyjxxgDJLMDgADnmtKgAooooAKKKKACiiig AooooAKKKKACiiigAooooAKKKKACiiigAooooAKKKKACiiigAooooAKKKKACiiigAooooAKKKKAC iiigAooooAKKKKACiiigAooooAKKKKACiiigAooooAKKKKACiiigAooooAKKKKACiiigAooooAKK KKACiiigAooooAKKKKACiiigAooooAKKKKACiiigAooooAKKKKACiiigAooooAKKKKACiiigAooo oAKKKKACiiigAooooAKKKKACiiigAooooAKKKKACiiigAooooAKKKKACiiigAooooAKKKKACiiig AooooAK5zxWi3J0WwmGbO81FYrpT0dBFJIFb2Z0QEd84710dU9Q0621Wye0u0Zo2IYFWKsrA5VlY cqwIBBHpQAkml2EtzaXT2cJntCTbybBuiypU7T2G1iMVwej+LNT1E6Xqcc+rT/bp4w+n/wBiyrbx QyNgMs/ldUDBixcqdrYAyK6u18NtDqVte3WuatfG2LGGK4kjWNSVK5IjRdxwx+9mktvDCWVyhtdV 1OGySXzVsEkQQqc7sA7d4XP8O7b2xjigChCNd1nXvEFumtyWFlY3kcVv9ngiaTm2hcqS6sNu5yem fmPOAKxrYalr/ifRJpNau7K6jsNTtpWs4odrPBdwxMwEkb43kAkdtq4x827urPTYbK71C4iaQvf3 AuJQxGAwiSLC8dNsa/iTWU/hKFfJez1K/sbmGW6lS4gMTPi4l82RCHRlK7sY+XI2jmgDD1nxFeye INVs7bUNTsl07ZHEtno0t4k0rRrJmRlifC4dRtUq3U55FXZtS1rVNT8OW1vNJpS6hpc93dxmFTLC ym3wAHU4ZTIy/MMcnIyBjWvvDy3OoyXtrqd/ps8yqs5tGjxMF4G4OjDIHG4YOMc8CrK6RAmo2N95 k7TWdrJaJvfduV2iJLE8lswrznuetAFyCN4beKN5pJ3RArSyBQzkD7x2gDJ68AD2rh/7R17/AIQ/ /hMv7ZfZ9m/tD+zfs8fk+Rjf5e7b5m/Zxu3fe/hxxXfVzP8AwhVpj7N/aWpf2X5vmf2Z5ieR97dt +5v2Z/h3be2McUAQWtlO3xS1S5/tK6EaaZZt9m2xeWwZ7ldpOzfgFd3DA5JySMKG+O9NXV38OWJk MbS6m/lyjrHILO5ZHHurBW/Cuij06GLWLnVFaTz7i3it3UkbQsbSMpHGc5lbP0FF5psN7d6fcStI HsLg3EQUjBYxPFhuOm2RvxAoA858V6s3ivwXqNs6CM2OkXV1qcQ6R3CpJGkR+kiyP/2zU966vxJq V8L+HTdLk1FrkR+dNHp0EDSKpOEJedhGoJVxjBJxxjFal/oGn3+marYeQluuqRSRXUtuipI+5NhY nHLY6E5qHUvD6X+oC/h1G+0+5MQgle0ZB5sYJYKwZW6FmwRgjceaAMGPX9avPBdjfJHcxzm9ltb6 W3tlmnhjjkljLrGpZWbci5C7gNzEbsVG+r3w0tn0zXb7U4xcol1ILBDe2cZVyW8pUXcS2wAGPIG4 4btvW3ha20/QYtJ06+v7OKKeSeKWGUeYpd3cj5gQy5cjDA9BnJGaavhZVWaQ6xqhv5im++EkaykJ u2rtVBHtG9/l2Yyc9aADwzeLdpdCPXptVVCoK3NusM8B54dVVOvGMqOh69qdzYahp+s6teJo0GsW mpFGdRKizIFjVDHtkwrJ8pYfMOXbjvWxpeippk9xdPd3V7eXCoktzcld7Km7auEVVAG5ugH3jVS6 8MmbVLi+tdc1awe62meK3ljaNyFC5CyI204UcrjpQBUfWrS38HWTaKs9t5jLZWdult5kqOhKtEEL AblEbjJbaNuTkDnIt/E2t2UOsWVzFd/a4PsQtX1NbfzAbmVoQXFuxQqrLu/hOMj0NdLJ4XsTpFpp 8EtzbfZJfPguIpMypKd259zAhi2987gc7jVP/hDrSCDWJWe71K61G2SKf7TOFMrR7yhDKo2Nl8ZU YG1SBkcgEE39uaNr/h63k1yS+tb+8kiuBPBEr/LbTOAuxVwu5Ae5+UfNgkVjSw3Wp/8ACOGPUZ7B h4l1SINZwwL0+24bDRsN2EIzjnexOWwwt6Zoer3niTSr6+i1ZYtNeSUS6pc27sd0Tx7EWDgj58ln +b5R6mt+XwtbNp8VtDd3lvJDfTX8NzEU8yOWV5GbG5SpH751wVPB9eaAMjVNKvZ/HWhxR6/qVu66 PdqZYo7cs5WW1yx3REZbcM4AHyDaF5y/xBqmqS6rPa6M+qObNF84WNvbFUkI3ASPcOoI2lTtTBGf vcjGxfaA16bGZdWv7e+s4miW9hEPmSK23fuVoynzFFPCjkcYqO98LQXl/c3C39/bxXm37ZbQSKsd xhQvzZUsvyhVO1lyAKAMvStSfWde8Jao6BHvPD11cMg6KXaybH61Z8X3EtpqHheaGynvZF1VsQQM gd/9DuRxvZV468kdK0NN8OWel/2R5Mk7f2Vp7afBvYHdGfK5bA5b9yvTA5PHpcvNNhvbvT7iVpA9 hcG4iCkYLGJ4sNx02yN+IFAHCeKLW+vdK8T63PpDaVEvh68tik0kbTXDMu4M3lsygIFYD5if3h6V 1HibUri2S1srCS7F7dMzLHZwRyTNGo+YqZGEa4LJ8zZHOMZPGnq2nQ6zo99pdw0iwXlvJbyNGQGC upUkZBGcGq+raImqT21yl5d2N3bB1iubUrvCtjcpDqykHavUfwigDj7fxB4iuhZ6ekslteLrradK 95FCZDF9iefLCNim4ZU/KQDtGcZK10NhJqWmeJ4tJvNTl1KC7s5bmOSeKNJI2ieNWX92qgqfOXHG RtPJp2n+DtP064SaKe7eRdQbUSZJAxeY25t23cdCpLf7x9OK1ZNOhl1i21Rmk8+3t5bdFBG0rI0b MTxnOYlx9TQBw9nf+JV+HVr4vutcLzxaYl/LZrbRCGZBGHbcdu8Myg8qwAJ+7gVPrPiK9k8QarZ2 2oanZLp2yOJbPRpbxJpWjWTMjLE+Fw6japVupzyK6X/hHLP/AIQ3/hGPMn+w/wBn/wBn+ZuHmeX5 fl5zjG7HtjPam33h5bnUZL211O/02eZVWc2jR4mC8DcHRhkDjcMHGOeBQBkzalrWqan4ctreaTSl 1DS57u7jMKmWFlNvgAOpwymRl+YY5ORkDHVwRvDbxRvNJO6IFaWQKGcgfeO0AZPXgAe1U10iBNRs b7zJ2ms7WS0Te+7crtESWJ5LZhXnPc9a0qACiiigAooooAKKKKACiiigAooooAKKKKACiiigAooo oAKKKKACiiigAooooAKKKKACiiigAooooAKKKKACiiigAooooAKKKKACiiigAooooAKKKKACiiig AooooAKKKKACiiigAooooAKKKKACiiigAooooAKKKKACiiigAooooAKKKKACiiigAooooAKKKKAC iiigAooooAKKKKACiiigAooooAKKKKACiiigAooooAKKKKACiiigAooooAKKKKACiiigAooooAKK KKACiiigAooooAKKKKACiiigAooooAKKKKACiiigAooooAKKKKACiiigAooooAKKKKACiiigAooo oAKKKKACiiigAooooAKKKKACiiigAooooAKKKKACiiigAooooAKKKKACiiigAooooAKKKKACiiig AooooAKKKKACiiigAooooAKKKKACiiigAooooAKKKKACiiigAooooAKKKKACiiigAooooAKKKKAC iiigAooooAKKKKACiiigAooooAKKKKACiiigAooooAKKKKACiiigAooooAKKKKACiiigAooooAKK KKACiiigAooooAKKKKACiiigArC1fV9StdYsdL0vT7W6nubee4Zrq8aBUWNolx8sb5JMw9Olbtc/ ef8AJQ9G/wCwVf8A/o20oAPtnjD/AKAWh/8Ag5m/+RapSa74pi1m20ttB0fz7i3luEYaxLtCxtGr A/6NnOZVx9D+PW1z95/yUPRv+wVf/wDo20oAPtnjD/oBaH/4OZv/AJFo+2eMP+gFof8A4OZv/kWu gooA5/7Z4w/6AWh/+Dmb/wCRaPtnjD/oBaH/AODmb/5FroKKAOf+2eMP+gFof/g5m/8AkWj7Z4w/ 6AWh/wDg5m/+Ra6CigDn/tnjD/oBaH/4OZv/AJFo+2eMP+gFof8A4OZv/kWugooA5/7Z4w/6AWh/ +Dmb/wCRaPtnjD/oBaH/AODmb/5FroKKAOf+2eMP+gFof/g5m/8AkWj7Z4w/6AWh/wDg5m/+Ra6C igDn/tnjD/oBaH/4OZv/AJFo+2eMP+gFof8A4OZv/kWugooA5/7Z4w/6AWh/+Dmb/wCRapaZrvin VbV7iDQNHVEuJ7ch9YlB3RStEx4tum5Dj2xXW1z/AIN/5Alz/wBhXUv/AEtmoAPtnjD/AKAWh/8A g5m/+RaPtnjD/oBaH/4OZv8A5FroKKAOf+2eMP8AoBaH/wCDmb/5Fo+2eMP+gFof/g5m/wDkWugo oA5/7Z4w/wCgFof/AIOZv/kWj7Z4w/6AWh/+Dmb/AORa6CigDn/tnjD/AKAWh/8Ag5m/+RaPtnjD /oBaH/4OZv8A5FroKKAOf+2eMP8AoBaH/wCDmb/5Fo+2eMP+gFof/g5m/wDkWugooA5/7Z4w/wCg Fof/AIOZv/kWj7Z4w/6AWh/+Dmb/AORa6CigDn/tnjD/AKAWh/8Ag5m/+RaPtnjD/oBaH/4OZv8A 5FroKKAOSvNe8U2N1p9vJoGjl7+4NvEV1iXCsInly3+jdNsbfiRV37Z4w/6AWh/+Dmb/AORaPEP/ ACG/Cf8A2FZP/SK6roKAOf8AtnjD/oBaH/4OZv8A5Fo+2eMP+gFof/g5m/8AkWugooA5/wC2eMP+ gFof/g5m/wDkWj7Z4w/6AWh/+Dmb/wCRa6CigDn/ALZ4w/6AWh/+Dmb/AORaPtnjD/oBaH/4OZv/ AJFroKKAOf8AtnjD/oBaH/4OZv8A5Fo+2eMP+gFof/g5m/8AkWugooA5/wC2eMP+gFof/g5m/wDk Wj7Z4w/6AWh/+Dmb/wCRa6CigDn/ALZ4w/6AWh/+Dmb/AORaPtnjD/oBaH/4OZv/AJFroKKAOf8A tnjD/oBaH/4OZv8A5Fo+2eMP+gFof/g5m/8AkWugooA5Kz17xTfXWoW8egaOHsLgW8pbWJcMxiSX K/6N02yL+INXftnjD/oBaH/4OZv/AJFo8Pf8hvxZ/wBhWP8A9IrWugoA5/7Z4w/6AWh/+Dmb/wCR aPtnjD/oBaH/AODmb/5FroKKAOf+2eMP+gFof/g5m/8AkWj7Z4w/6AWh/wDg5m/+Ra6CigDn/tnj D/oBaH/4OZv/AJFo+2eMP+gHof8A4OZv/kWugooA577Z4v8A+gHof/g5m/8AkWsi+8Ya7p2sW2lX Gj6N9puACNusSFYwTtUvm3yNzHaMA8+ldRquorplmZBGZp3IjggUgNNIeijP5k9gCTwKybHwwJ9E ubXXXjvrm+kaa5ZUwquV24TuAoAAJ5+nQXDlV3LX+v0KjFby2Jftni/H/ID0P/wcy/8AyLR9s8X/ APQC0P8A8HM3/wAi0zRdUuLW7Ggaw5OoRoWguCDtu4geGz/fHG5fxHBro6lqwSi4uxgfbPGH/QC0 P/wczf8AyLR9s8Yf9ALQ/wDwczf/ACLXQUUiTn/tnjD/AKAWh/8Ag5m/+RapanrvinSrVLifQNHZ HuILcBNYlJ3SyrEp5tum5xn2zXW1z/jL/kCW3/YV03/0thoAPtnjD/oBaH/4OZv/AJFo+2eMP+gF of8A4OZv/kWugooA5/7Z4w/6AWh/+Dmb/wCRaPtnjD/oBaH/AODmb/5FroKKAOf+2eMP+gFof/g5 m/8AkWj7Z4w/6AWh/wDg5m/+Ra6CigDn/tnjD/oBaH/4OZv/AJFo+2eMP+gFof8A4OZv/kWugooA 5/7Z4w/6AWh/+Dmb/wCRaPtnjD/oBaH/AODmb/5Fq/q2tWWiRQSXpn/0iXyYkgtpJ3d9rPgLGrN9 1GPTtUel+INN1iaWC0llFxCAzwXFvJBKoPRtkiq2PfFAFT7Z4w/6AWh/+Dmb/wCRaPtnjD/oBaH/ AODmb/5FroKKAOf+2eMP+gFof/g5m/8AkWj7Z4w/6AWh/wDg5m/+Ra6Cq1nfW+oQNNayeZGsskJO 0jDxu0bjn0ZWH4UAZH2zxh/0AtD/APBzN/8AItUo9d8Uy6zc6Wug6P59vbxXDsdYl2lZGkVQP9Gz nMTZ+o/DpL2+t9PgWa6k8uNpY4QdpPzyOsaDj1ZlH41kWf8AyUPWf+wVYf8Ao27oAPtnjD/oBaH/ AODmb/5Fo+2eMP8AoBaH/wCDmb/5FroKKAOf+2eMP+gFof8A4OZv/kWj7Z4w/wCgFof/AIOZv/kW ugrNttd0271m80iG53X9mFM8JRl25VW4JGG4dM4JxuGcZoAo/bPGH/QC0P8A8HM3/wAi0fbPGH/Q C0P/AMHM3/yLWul7bPqE9gsmbqGKOaRNp+VHLqpz05Mb/l9Ks0Ac/wDbPGH/AEAtD/8ABzN/8i0f bPGH/QC0P/wczf8AyLXQUUAc/wDbPGH/AEAtD/8ABzN/8i0fbPGH/QC0P/wczf8AyLXQUUAc/wDb PGH/AEAtD/8ABzN/8i0fbPGH/QC0P/wczf8AyLWtYXttqen21/ZyeZa3MSzQvtK7kYblODyOD3q1 QBz/ANs8Yf8AQC0P/wAHM3/yLR9s8Yf9ALQ//BzN/wDIta1/e22mafc395J5drbRNNM+0ttRRuY4 HJ4HarVAHJatrvinR9HvtUuNA0doLO3kuJFj1iUsVRSxAzbAZwKu/bPGH/QC0P8A8HM3/wAi1jfE DxRpEPhDxLYG4leb+z7iBjFbSyRpI0TAI0iqUVuRwxHWuwS9tn1CewWTN1DFHNIm0/Kjl1U56cmN /wAvpQBkfbPGH/QC0P8A8HM3/wAi0fbPGH/QC0P/AMHM3/yLXQUUAc/9s8Yf9ALQ/wDwczf/ACLR 9s8Yf9ALQ/8Awczf/ItdBVazvrfUIGmtZPMjWWSEnaRh43aNxz6MrD8KAMj7Z4w/6AWh/wDg5m/+ RaPtnjD/AKAWh/8Ag5m/+Ra6CqUuq2MNhBfNcxtaTvCkU0Z3rIZXVI8Fc5DM689Oc9KAMz7Z4w/6 AWh/+Dmb/wCRaPtnjD/oBaH/AODmb/5FroKKAOf+2eMP+gFof/g5m/8AkWj7Z4w/6AWh/wDg5m/+ Ra6CigDn/tnjD/oBaH/4OZv/AJFo+2eMP+gFof8A4OZv/kWugooA5/7Z4w/6AWh/+Dmb/wCRaPtn jD/oBaH/AODmb/5FroKKAOSk13xTFrNtpbaDo/n3FvLcIw1iXaFjaNWB/wBGznMq4+h/G79s8Yf9 ALQ//BzN/wDItF5/yUPRv+wVf/8Ao20roKAOf+2eMP8AoBaH/wCDmb/5Fo+2eMP+gFof/g5m/wDk WugooA5/7Z4w/wCgFof/AIOZv/kWohrWu2uraXaapo+nQwahcNbiW21KSZkYQyS52tAgxiIj73eu lrn/ABD/AMhvwn/2FZP/AEiuqAOgooooAKKKKACiiigAooooAKKKKACiiigAooooAKKKKACiiigA ooooAKKKKACiiigAooooAKKKKACiiigAooooAK5+8/5KHo3/AGCr/wD9G2ldBXP3n/JQ9G/7BV// AOjbSgDoKhMETXCXDQxmdFZEkKgsqsVLAHsCVXI/2R6VNRQAUUUUAFFFFABRRRQAUUUUAFFFFABR RRQAUUUUAFRQwRWyGOCKOJC7SFUUKCzMWY8dyxJJ7kmpaKACiiigAooooAKKKKACiiigAooooAKK KKACiiigCGSCGaSGSSGN3hffEzKCY22lcr6HazDPoT61NRRQAUUUUAFFFFABRRRQAUUUUAFFFFAB RRRQAUUUUAQxwQwyTSRwxo8z75WVQDI20LlvU7VUZ9APSpqKKACiiigAooooASoLu6hs7WW5ncRx RqWdj2AqeuKmz401prMndodm4M6/w3DjkK394dGx024OG3oVcY3ZcY31exoaEk2uXC+Ir+3MIKlN Pt3OWiiPVz23vx06Lgd2z0tFHak9WKUuZmL4j0U6xYo1vKYNQtnE1pOpwUcdjwflPQggj2OKTw3r n9s2bLPH5N9bnbcQ4wVOSM4yccgjGTggjLYyduuR8T2Uul3B8Q2ICOgzcnO0DAA3k/3SFCvn+EK3 WNa0j7y5ev8AWhUXdcrOuoqrY3kWoWcdzCTtcfdYYZSOCpHYg5BHYgirVZmbVnZi1FNBFcoI54o5 UDrIFdQwDKwZTz3DAEHsQKlooAKKKKACiiigAooooAKKKKAOW8XPeJqHhdrC3gnuhqr7I55jEjf6 Hc5ywViOM/wn+tYPiRPESanpuo3cKxSXEh01bbR7gNL5b/vXPnS+UASYEUdMbmwdxFd9cWVvdT2k 00e+S0lM0DbiNjlGTPv8rsOfWm3+n2uqWb2l7As0DkEq3GCDkEEcgg8gjkUAcPcyazp/g7xixt9X sLaHTJJrB7+8SW4jk8qTftkSV2wCqMCzZyxx0rS1PTrjQo7LVk1XUJrw31rBciW5doZlmmSJh5Wd i48zI2gHgVsReF9Ji06+sDDPLBfxGG5M91LK8kZBXaXdi2MM3Q8Z4rQvbG31CBYbqPzI1ljmA3Ef PG6yIePRlU/hQBzgtH8Q+I9YiutQv7eLTpI4LeG0ung+9EkhlbaRuyXK4bK/J061jeC7m4F7pEL3 rTRSjXGdgdqTyC/Ta+0cZwXI9AWrrtS8N6Xqt2Lq6glE4TyzJBcSQl0zna2xl3LyeGyOTUb+FNFb TobBbMxW8E0k8IgleJ4ndmZijqwZcl24BAwcdKAOb8S3jy+IdQtRcM8UEugHyt+VjdtQfJx2JUJn 1AWt604+IergnG7SrHHviW6z/MfnU0HhLRLfzPKssNI0DSOZXLSNBKZYmZi2WIck5PJ6HI4qfU9A 07WJYpruKUTRAqk1vcSQSBT1XdGynacDjOKAOPuru91DxFJZ2+q3UULeJ/srGGU8RDS97xj0G8Mf Zvm681ettHlk8T6jobatqh0u3tLe7SP7dL5u+VpUI87d5hUeTnbu6se2BW9aeGNHsJIntbFYjHdf a12s2BN5PkbsZ/558fr15q+llbJqE9+seLqaKOGR9x+ZELsox04Mj/n9KAMzwnc3FzoC/apnnlgu rm081/vOIZ5IlZvchBn3rDXTZ7rVfEt7YBf7TsdYSW23HAf/AEK1DRMf7rjj2O1v4a6+zsbfT4Gh tY/LjaWSYjcTl5HaRzz6szH8aLeyt7We7mhj2SXcomnO4ne4RUz7fKijj0oA4E6wL34j6ZeWc0sd vdR2SSoSVJHl6n+7kHqJFAKnoyjuK6e5vHHj/TLJbhgh0u8lkgD8EiW2CMV/FwD7tUs3hPRJ5r+a SxBkvzGbhhI4y0ZJRlwfkILMcrg5JPWn6f4a0nTL1b22t5DdrG8X2ia4klkZXKFgzOxLcxr16Y4x k0AcTY2+qQfD/wAOa8mu6i2q3KafHJJLcM8bLO0cRzGTtLASbt2NxZcknJrV1Ka58I312bK5vbtH 0W8vhDd3Lz/voDFgruJK7vN5UccDAFdQuiacmkWmlLb4sbPyPIi3t8nksrR85ycFFPJ5xzmp5LC2 lv4b54g1zFDJAjEnhHKFxjocmNPy9zQBxvh5NZi1XTJlsvEHkTKwv59SvoJYnBQssiIkz7DvCgBF C4Y56Cr/AITspbsXOqXuoX1xLHqd/HBGbqQRxxrcyoFKA7XwBxuBxxjG0Vp2HhbSNMu0uLS3lRos +TG1zK8UORg+XGzFU4JHygcGtGzsbfT4GhtY/LjaWSYjcTl5HaRzz6szH8aAONtL++uPAXgqJr6e KXVY7SG5vN+ZQDbtIx3H+JmQLu6/P61f1O0/sHTxZ2F1qs9xqc6W8EcmoMxVwGdsSyb2QFEbOM9P lANbP9haYdCh0RrRH06GJIY4WJO1UA2YJOcjAwc54znNVR4Q0UWstu0FxIsjI5klvJpJVZc7SsjO XXGTjaRjJ9aAOKu59Rg8OeP9GvioS10Tz44v7RkvTGZIpwQZJEVukanac4z15wPUqwovCWhw2uoW 62RKajbC1vC00jPPH8/DMW3E/vH+bO7nrwMbtAHHtp2qafa6jHp8el6vpNxNcSyWd0TG+ZHZpYy+ GVhuLjDKMfdJ71matr017pHirUrG6uYYX8JwX1qA5UxM63bbxg/K2FTkf3R6V0U3gnQJrm4nNpKh unaS4jiu5o4pmb7xeNXCNnvkc1euNB0y6jvY5bRSl9ZrY3CqzKHgXfhBg/L/AK1+Rg8+woA5zU9L vdO1PREg1rUfM1S6a1vWedmVl8mSUtGp+WJv3WBsAwGPtVbVWu9H0zxrptnfXzLbaIL21eW5eSWG R0uFIWRiX6wqw54JOK7a4sre6ntJpo98lpKZoG3EbHKMmff5XYc+tNGn2v264vPJBnuIUglYkkNG hcquOnWR/wA/pQBk+LL422j2UkFyYmn1OwjRkfaXVrqLcoI6gpuyO4zWZp1//ZvgjUbged5jarfw ReQVD+ZJfyxpgsCoO5hyQR65rTi8FaBCYitnIwhkjkhSS6ldYWR1dfLVmIQBlXhcDjHTitBtE01t Mn017VWs55JJJImYnLSOZHOc5HzsTx07YwKAOS0dNTt/Fp0PUC8VvfaZPO8aazNdSBleJNwZkRoi RI33GxxxtxzV0SzGkfC7w5dWdzfJLdf2MJC97NIAGmgDKqsxCKQzAqoAIOMYxXX6f4Z0nS75b62t 5PtixvF9omuJJpCjFCVLOxJGUXGemOMZOW23hbSLW3e3ihnFu00Mwge7leONonEibFZiEAYA7VwD gAgigClqED6z4uk0ue9vLeztbCO4EdpcvA0zyPIpJZCGwojHAOPn57VhySalJc2OjRaxeKkHiF7I XQkzJJB9hkmKM38RBJXJ7oD1Ga7DVNA07WJIZLyKXzoQRHNBcSQSKDjI3xsrYOBxnHFFtoGl2kNj FBaBEsZmuIMM2VkZXVmJz8xIkfO7P3s9aAMuytn0Txfb6bBeXs9ne2E9wY7u5ecpJE8K5VnJYZE3 Izj5RjFdRVZ7K2fUIL9o83UMUkMb7j8qOUZhjpyY0/L61ZoAx7zxHY2F09tNDqTSJjJh0y5lTkZ4 dIyp69jUP/CX6Z/z76x/4Jbz/wCNVu4FGB6VScO39fcBg/8ACX6Z/wA++s/+CW8/+NUf8Jfpn/Pv rP8A4Jbz/wCNVvfhRx6U7w7P7/8AgC1OcPifR2uEuGsdVM6KyJIdEuyyqxUsAfK4BKrkd9o9Kl/4 S/TP+ffWf/BLef8Axqt7j0o49KLw7P7/APgBqYX/AAl+mf8APvrH/glvP/jVbtGKWplboMK5/wAQ /wDIb8J/9hWT/wBIrqugrn/EP/Ib8J/9hWT/ANIrqkB0FFFFABRRRQAUUUUAFFFFABRRRQAUUUUA FFFFABRRRQAUUUUAFFFFABRRRQAUUUUAFFFFABRRRQAUUUUAFFFFACZxXP3f/JQtG/7BV/8A+jbS ugNc9eEL4/0ZmIAOm3yAEjJJktTgDvwpoBJvY6KiiigAooooAKKKKACiiigAooooAKKKKACiiigA ooooAKKKKACiiigAooooAKKKKACiiigAooooAKKKKACiiigAooooAKKKKACiiigAooooAKKKKACi iigAooooAKKKKACiiigAooooATtRRWXrmrRaNp0lwxUyYIjRjgE4zyfQAEk+gPXpRZvYcYuTsjK8 T6lPNLFoem/Nd3Rw57IvU5x0BGSfYEAhmTO3pWmw6Tp0VnBkqgJZ2A3Ox5LHHcnmsvwvpEttFJqd 8GN/d8nzB80aE52n0Y9Wx04XJVFrosVcrRXKipyXwrZC0UUVBAU11V1KsAVIwQehp1FAHEwMfCXi AW8pK6ZcISsh6KqgY3e6D5SepTYTxExHa9eRVHVNNTU7Iw+YYpUYSQzKPmikHKsP6juCQeCaxPCW oOizaLdoIbq0YhYgeAnHC/7K7gB/sNGTgkgXL3lzfeafHHzX5HVUUUVBmFFFFABRRRQAUUUUAFFF FABRRRQAUUUUAFFFFABRRRQAUUUUAFFFFABRRRQAV4/p2raUfA+m3eleKLy68VvYwutqmsS3TS3J RSUeBnYAFshvlG3npivYKyvDWmzaN4W0jS7hkaezsobeRoySpZECkjIHGRQBjf8ACX3/APZ/9t/2 In9gff8AtP2v995Of9d5WzGzHzff3be3anx6tdWH/CYXnly3i2N+hSDzDlYxaWzOE6/3nYKOpPvm qn/COeIP+Ee/4RXdpv8AY/lfZPtfmv5/2b7uzytm3ds+Xdv98dq3bK0/si48QahfTwR2t1dC73s+ FjjW2hjYuTgDmJj6YxQA++1qO2Olpaot0+ozqkIV8DZtLtJnB4CAn3O0cZzWBaeNdSufDlr4kfw+ IdHe3S4ndrz99GhUFmWPZhkXk53KSBnb2qHwPYmW+ub1biO40qwDWOjSxnKtAzb2IPcD93ECP+eP vWl/wjl5/wAKs/4RfzIPt39i/wBn+ZuPl+Z5Pl5zjO3PtnHagC7qes3sWqrpek6dHe3gh+0Sme58 iKJCxVcsFYksVbAC/wAJ6VnyeMZo7ezUaRK2oTai2my2omH7qUQvKDuxhlIVTnj5XzjI21c1HT9W g106voy2czzWy21xb3crRBgjMyMrqrYI8x+NvOR0xVO18N6gLvT766ntmuxq0mo3gj3BADayW6pH xzgGPk4zhjx0oAdH4l1mW+n0ldBh/teBFmdDen7P5TZCsJfL3ZJVht2fwntzTtO1xdW13SHEdzC0 1jfeZAZvkSSKaCN1ZcfMysWAbIwN3B3cacGmzReKdQ1QuhguLK2t0UE7g0bzsxPHTEq457GsvR/D l3p+s2t3NJAY4v7U3BCcn7TdpNH27KpDe/TPWgCDxF48tvDl/NFdf2ckEADSedqccdw6kAkxQ8l8 ehKk44B4zp2txO3jnVrdpXMEem2TpEWO1WaW6DEDoCQq5P8Asj0rn9V8K+IJ9E1/RNPfS44NUNy/ 22R3Ex83cdjIExgZ2bt3CgfLxXUQabNF4p1DVC6GC4sra3RQTuDRvOzE8dMSrjnsaAOf8Wz26+Kd Gt7+XWRZyWV45j0trvc0ivbBSwtvmIAZ+Tx83qRVjSXs4Ne0uCxfWfIubK9nC39zcE5SS2X5o7jL 55+XkAAtgHfmtifTZpfFOn6oHQQW9lc27qSdxaR4GUjjpiJs89xRPps0vinT9UDoILeyubd1JO4t I8DKRx0xE2ee4oA48+I/Fw8A+ItUktdOSezXUTBcJeMzI0U0igbDAFIRVOCfvbF3AbiV6DU73Uod Dim1S2S0nOpWcSrp98z5VrmJeXaJeMsQy7eVyMjdxW/4R7VJNE17w9KLNdPv1vjDdpMxlVrh3fDR lMYXzG5D/wAI454uXljrOs6JHBfQWNrdx39pPiC5eVGjinilY5MakMQjADBHT5ueACM+ItVutX1X TtL0SO4fTp0ikluLzyY3DQxyDaQjHd85GMY4B3c4oHit7mx0/wDs/Tmm1G9MqrayyiMQmJtsvmOA 2ArfLkA5JHFaOladNY6lrdxKyFL+9W4iCk5VRbwxYbjrujb14Irmb2wm8MWtpqr3thDcwX1/g3Ts kDw3Nw021pAp8s/LH8xBGVI5yDQBu6Pr11qGtahpV7pv2O5sYIJXZZvMR/NaUfIdoyoEY5IHJIwM c71cT4PurnV/Eut6zJNbT281vaQRyWhZ4A0bTFlSQgeYB5indgcsR2rtqAEyKMj1rIvPDljf3T3M 02pLI+MiHU7mJOBjhEkCjp2FQ/8ACIaZ/wA/Gsf+Dq8/+O1SUO/9feBu/jRx61g/8Ihpn/PxrP8A 4Orz/wCO0f8ACIaZ/wA/Gs/+Dq8/+O07Q7v7v+CLU3uPWjj1rB/4RDTP+fjWf/B1ef8Ax2j/AIRD TP8An41n/wAHV5/8dotDu/u/4Iam9mlrB/4RDTP+fjWP/B1ef/Ha3amVugxa5/xD/wAhvwn/ANhW T/0iuq6Cuf8AEP8AyG/Cf/YVk/8ASK6pAdBRRRQAUUUUAFFFFABRRRQAUUUUAFFFFABRRRQAUUUU AFFFFABRRRQAUUUUAFFFFABRRRQAUUUUAZut6n/Y+jz3qwmaRSscUW7b5kjsERc9ssyjPvWdbahr VhrFlZa01hNHf71hls4nj8uVVL7GDM24FQxDcfd+7zVnxRZXN9oMqWkfm3MM0N1FHnHmNDKkoTJ9 dmPxrOF4/iLX9Hkt7C/t7bTpXuppLy1eD5zE8SxqHA3H96xJGV+XrzQBvajHqUtsq6Xd2ttOHyz3 Vs06lcHjasic5xzn8KxtHvdek8TXunX93pt3a2tujSSWtk8DLM5yqfNK+flBY9PvLWxHqAfT57w2 t2ghaZTE0R8x/LZlyqj7wbbuX1DL61T8MWM9po4mvV26heyNd3Y/uyP/AAf8AXag9kFAGzXCeMpD B4u0K6A2/Z7G8lNwTxbgSW2XYd152t0wrMc8V3Zrktfh1Gfxxo0em3NpbynTL/c11atOhXzLTI2q 6c9Oc+vHNONk9Rxk4u6Oh069F/aLMEKOCySRnqjqcMPzHXv171crze3tvEXhPVoNN/tjSo7TUHxD cS6bIyCUDCxBfPG35QAMsc7R6E16HbrMtvGtxIkkwQCR40KKzY5IUkkDPbJ+pokrMqpFJ3WzJqKK KRAUUUUAFFFFABRRRQAUUUUAFFFFABRRRQAUUUUAFFFFABRRRQAUUUUAFFFFABRRRQAUUUUAFFFF ABRRRQAUUUUAFFFFABRRRQAUUUUAFFFFABRRRQAUUUUAFFFFABRRRQBDcTxWtvJPPIscUal3djgK AMkmuT0+CTxNr76ldIVsbR9kMTD7zqQcH/dZQzf7YVesR3P8R3c+s6lH4a02Uo5ZZbydRnyEGCPb cTtIBznjIKk46e0tYbG0itbaMRwxKFRR2H1PWrXuq/U1fuR83+RYoooqDIKKKKACiiigBDXMeKdL n+TWtNBF/aj5gqkmRBnHA6ldxOO4Z1GC2R09FOMuVjjJxd0Z+japDrWk22oW7AxzJuwGDYPQjI64 II/CtCuLuFPg/wARR3MeU0bUZsTAD5YZCOCfQZHX0LAnCxqOzHP0pyjZ6bFTS+JbMdRRRUkBRRRQ AUUUUAFFFFABRRRQAUUUUAFFFFABRRRQAUUUUAFFFFABRRRQAUUUUAFFFFABRRRQAUUUUAFFFFAB RRRQAUUUUAFFFFABRRRQAUUUUAFFFFABRRRQAUUUUAFFFFACE4rgG1uTVvEvh3aDLB/a0kgkBAWI GyuPLTp8xZMyHPQOvYineJLnxHcaymgWmpaZIbzdL5QsHDQwBwMyN53zAjIJCrk8cbgKRdI1bR9W 8JW95qOn3VsNSl/1Fg8MjSG0uSXZjM4OfmyNo5PbGKtJJXZo0ow13Z39FFFQZhRRRQAUUUUAFFFF ABRRRQAUUUUAFFFFABRRRQAUUUUAFFFFABRRRQAUUUUAFFFFABRRRQAUUUUAFFFFABXP3n/JQ9G/ 7BV//wCjbSugrn7z/koejf8AYKv/AP0baUAaOraZb6xp01ldBtkg4ZDhkYdGU9iDgiq2iahcXEct lfqU1G0wk3GBID92Vf8AZbB+hBHatcVzviWxvEkttb0tQ1/ZEhosH/SISRvj478Ajrgjoc01roaQ fMuRnRUVT0zUrXV9Ogv7OQSQTLuRh+oPoQeCOxFXKW2hm1bQWiiigAooooAKKKKACiiigAooooAK KKKACiiigAooooAKKKKACiiigAooooAKKKKACiiigAooooAKKKKACiiigAooooAKKKKACiiigAoo ooAKKKKACiiigAooooASsbxHrY0XTw0cbTXk7eVbQqMl3PT8PxHYZ5rWkkSONpHYKijJYnAA9a5r RoTr+qL4luE/cIpTS42XlYz96U56F+3+yB6mnG27NIJfE9kXfDehto1gxuJPP1C5bzbqcnO5z2HT 5R9B3OMk1t0lKKG7u7Ibcndi0UUUhBRRRQAUUUUAFFFFAFTULG31OwnsrqPfDMpVhnB+oPYjqD2I rE8M3NzZvP4f1KUPd2fzQSE8z25+6/bp90+mByc5PS896wvE2iSapaw3NiyxarYsZbOY9m7oT12s OD+HXGKpO+jNINfC9mbtFZ+j6pFq+nR3UQZW5WSJuGicHDIw9QcitCpM5Jp2YtFFFABRRRQAUUUU AFFFFABRRRQAUUUUAFFFFABRRRQAUUUUAFFFFABRRRQAUUUUAFFFFABRRRQAUUUUAFFFFABRRRQA UUUUAFFFFABRRRQAUUUUAFFFFABRRRQAlUdW1BNK0ue8dGk8sfLGgy0jk4VR7kkAfWr3TmuZ06RP E2qHVSd+m2cjR2OGyssgyrze+OVX6Me4wWLhFPV7In8NaPPYwy3upMsur3hD3LqPlX+7Gvso49zn 2APEP/Ic8J/9hWT/ANIrqt+uf8Q/8hzwn/2FZP8A0iuqbd2TKTk7s6GiiikIKKKKACiiigAooooA KKKKACiiigAooooAKKKKACiiigAooooAKKKKACiiigAooooAKKKKACiiigAooooAK5+8/wCSh6N/ 2Cr/AP8ARtpXQVz95/yUPRv+wVf/APo20oA6CgjIoooA4uMnwf4jdJCRo+pzEqSeIJjz+APf2wcA K7Hs6o6rpkGr6bNZXC/JIMZwDtPY4PH58etYvhjUp4ppvD+pE/bbPiJySfOiAGDk8kjIz14K5O7c BfxLzRrL31zdev8AmdTRRRUGQUUUUAFFFFABRRRQAUUUUAFFFFABRRRQAUUUUAFFFFABRRRQAUUU UAFFFFABRRRQAUUUUAFFFFABRRRQAUUUUAFFFFABRRRQAUUUUAFFFFABRRRQAlFFZet6k+nWii2Q S31w4htYiDhpD3OOigAsT6A0DjFydkUdWZ9c1A6FDxaoA+oyK+DsPKwjHOW7+i/7wroQAoAAwBVD R9MXS7AQ7/NmZjJPOVAM0jcsxx/LsAB2rQplTkvhWyFooopEBRRRQAUUUUAFFFFABRRRQAUUUUAc 3qGPD+sjV1JWwuyIr/5sLG3ASb/2VuehU/wmuj6jNRzQx3ELwyoskbqVZGGQwPUEelc/4dupbG8n 8O3pYyWo32crf8trfoOf7yZ2n8D3p2uav3436o6WiiikZBRRRQAUUUUAFFFFABRRRQAUUUUAFFFF ABRRRQAUUUUAFFFFABRRRQAUUUUAFFFFABRRRQAUUUUAFFFFABRRRQAUUUUAFFFFABRRRQAUUUUA FFFFACUUVkeIdbj0PS3uNokuHPl20POZZCOBxz7nAJwDgE8U0ruyGk27IzPEd7LqOoweGLF2SS5G +8mTrDAOoH+033e+N3OMqa6S1t4bS2jtoEWOKJQqIvQAVj+GNFk0u0kuLxvN1K7bzbmU9cnov0HT 09OMAb3enK2yLm0vcXQWuf8AEP8AyG/Cf/YVk/8ASK6roK5/xD/yG/Cf/YVk/wDSK6qTM6CiiigA ooooAKKKKACiiigAooooAKKKKACiiigAooooAKKKKACiiigAooooAKKKKACiiigAooooAKKKKACi iigArn7z/koejf8AYKv/AP0baV0Fc/ef8lD0b/sFX/8A6NtKAOgooooASub8TaPPOF1XTjt1C2Xc oC5L7ckY6ZI3MMZAId143Bl6TNGOKabTuioyszM0TWYdb05LqMBHGBLHuzsbAPXuCCCD3DA96064 7ULafw5rMF9YI0tvOTG8A6kcvsB79XZM9GymcSDZ1VrdQ3ttFc28okhlUMjjoQabWnMtgnGzutmW KKKKkkKKKKACiiigAooooAKKKKACiiigAooooAKKKKACiiigAooooAKKKKACiiigAooooAKKKKAC iiigAooooAKKKKACiiigAooooAKKKKACiiigCKWVIInlkdURAWZmOAoHUk1z+iRtrV9/wklwuI2Q x6dGc/JCeshB/ifAPsu0etQa4X8R6t/wjkDMLOILJqcqPg44KQgjnLdT0+X13YrqERY41RFCqowF AwAKb0Rr8EfN/l/wSSiiikZBRRRQAUUUUAFFFFABRRRQAUUUUAFFFFACVjeINJk1G2juLJkj1Ozb zrSVhwHxgq2OdrDg/X2rZo7U0OMnF3RnaNqker6alyimOQMY5oWPzRSLwyH3B/Pg960a5TV5JPDW vrrYP/EquwsWo5OBCw4Sb+StyOAOuK6uhrqVOKWq2YtFFFIgKKKKACiiigAooooAKKKKACiiigAo oooAKKKKACiiigAooooAKKKKACiiigAooooAKKKKACiiigAooooAKKKKACiiigAooooAKKKKACii igCG5uYbO2lubiRYoYlLyOxwFUDJJrlNIgm8QeI5dbvI2W2tQYrOBx9wk/MT/tDAz6E7TzHmmarc S+JtTTTbWRhZRSAyOhILFW5fI6KpUqvcvkjiIk9dBBHbQRwwxrHFGoVEQYCgcAAdhVv3FbqaL3I3 6smoooqDMK5/xD/yG/Cf/YVk/wDSK6roK5/xD/yG/Cf/AGFZP/SK6oA6CiiigAooooAKKKKACiii gAooooAKKKKACiiigAooooAKKKKACiiigAooooAKKKKACiiigAooooAKKKKACiiigArn7z/koejf 9gq//wDRtpXQVz95/wAlD0b/ALBV/wD+jbSgDoKKKKACiiigCvd2sN9bPb3Cbo2x3IIIOQQRyCCA QRyCARXLaddTaDqt1bXT7rQzDzXwB5bScpNgcBXOQ2MASAtgBiR2FZmr6WuoW+5FT7TGrCNnGVZT 96Nx3RgMEfQ9QCHGVvQuLTXKzTo7VzXhrU2G3S7kyBkUm2aVsuVHDRue7xnAJ53Aq2Tk46XNEo2Z LTTsxaKKKQgooooAKKKKACiiigAooooAKKKKACiiigAooooAKKKKACiiigAooooAKKKKACiiigAo oooAKKKKACiiigAooooAKKKKACiiigBKyPEOsNpNgvkIst9cSCG0hP8AHI3Az/sjqT6CtOWVIYnl kdUjRSzOxwFA6kmuW8PxnxFqreJ7qMiJd0WmRyIQYoujOQeQzkHsOABzTS6s0ppfE9kbWiaRHo2n iAOZZnYyXE7DDTSt95z9f0GBWnRRSepEm5O7FooooEFFFFABRRRQAUUUUAFFFFABRRRQAUUUUAFF FFAEFzbxXdrLbTxiSKVCjoejAjBFc34Xmu9Jnfw1qRdpLdd9jct0uIM9Mj+JOARgcFevU9URWH4l 0i41KxjmsJFi1OzcT2kjAkBwCCp5HysCVIz3pxfRmkGn7r2NyiszQ9Yi1vTEu40Mbhmjmhb70Min DI3uD+Ywe9adDVmZtNOzFooopAFFFFABRRRQAUUUUAFFFFABRRRQAUUUUAFFFFABRRRQAUUUUAFF FFABRRRQAUUUUAFFFFABRRRQAUUUUAFFFFABRRRQAUUUUANzXPeINTPz6fBI6AKGu5oj88aMcKif 9NHJwvpyeu3Ohq+otYW6JbxiW9uG8q2iJ4Z/U+igZYn0HrgVl+G9OR2e+kka4jEjNbzOP9c5Hzz/ AFbJVewQALhWObXurmfy/wAyoRW72RoaBpg0vTEjMUccz/PIsY+VTgAKvA+VVCoPZRWsKKKj1FKX M7sWiiigQVz/AIh/5DfhP/sKyf8ApFdV0Fc/4h/5DfhP/sKyf+kV1QB0FFFFABRRRQAUUUUAFFFF ABRRRQAUUUUAFFFFABRRRQAUUUUAFFFFABRRRQAUUUUAFFFFABRRRQAUUUUAFFFFABXP3n/JQ9G/ 7BV//wCjbSugrn7z/koejf8AYKv/AP0baUAdBRRRQAUUUUAFFFFAHM+INKcyfb7XerhldzEu50ZQ dsqr/EQCVZRy6ErzgKdHQ9WXV9PWX5FnTCzIj7lVsA/K38SkEMp7qQfatPGa468gn8N6qt5bRPJB I5XagyXQksYiP7yszNGehy0fykqTcdVys0+NeaOzoqG2uIby2iubeRZIZUEkbqchlIyCPwqaoMwo oooAKKKKACiiigAooooAKKKKACiiigAooooAKKKKACiiigAooooAKKKKACiiigAooooAKKKKACii igAooooAKKKKAEoo6Vg+Jtbk0u1jtrNRJql6THaRYzzxlyP7q5Ge3IyRnIaXM7IcYuTsilrEq+I9 ZPhuJ5BZwBZtTkifaeoKQ5HI3dT04GM8nHTQQx28CQwxrHFGoVEQYCgdAB2FZ3h/RY9D0xbcN5lw 5MlxMessjcsx/GtaiT6LYubXwx2QtFFFIzCiiigAooooAKKKKACiiigAooooAKKKKACiiigAoooo AKKKKAOQ1GKbwx4gk12L5tJvSq6imeYGHCzAdCOgbGDg5O7HHWhgwBByD0IqO5t4ru1ltp4xJFKh R0PRgRgiuV8OXUuhaj/wi9/IWRVzp0zDHmR4J8v03AKTgdgeAFBN/EvQ1fvxv1X5HYUUUVBkFFFF ABRRRQAUUUUAFFFFABRRRQAUUUUAFFFFABRRRQAUUUUAFFFFABRRRQAUUUUAFFFFABRRRQAUUUUA FFFFABRRRQAlQ3VzDZWstzcSLHDEpd3Y8KB1NTVyGo3suuawthY7XhtnJ3MMo0yNje3qsbDherSD HyiNmFRjfV7DScnZDbW1n8QarJPeRsseNssTf8s4shlgPu3Dyf8AAU+YDNdiBiq1jZx2FmlvFnau SWY5LMTksT3JJJJ9TVmk5czuyptPRbC0UUUiAooooAK5/wAQ/wDIb8J/9hWT/wBIrqugrn/EP/Ib 8J/9hWT/ANIrqgDoKKKKACiiigAooooAKKKKACiiigAooooAKKKKACiiigAooooAKKKKACiiigAo oooAKKKKACiiigDN1vU/7H0ee9WEzSKVjii3bfMkdgiLntlmUZ96zrbUNasNYsrLWmsJo7/esMtn E8flyqpfYwZm3AqGIbj7v3eas+KLK5vtBlS0j825hmhuoo848xoZUlCZPrsx+NZwvH8Ra/o8lvYX 9vbadK91NJeWrwfOYniWNQ4G4/vWJIyvy9eaANTxBrK6LYJLmHzp5RDD58myMMQWLM3ZVVWY+y1D 4c1KfU4Z5H1bR9UhBAjn0zIAPO5WG9+nHO7nPQd6ev20euWWn3sul3E0Wmam072ksXzyCPzYd6r/ ABD5vMX+8oGOTimaW39p+Mm1az0+6tLNLFoJ5bm2a3NxIXVk+RwGOwLJyR/y0470AdZXP3n/ACUP Rv8AsFX/AP6NtK6CuS12PUpfHOiLpd1a20402+LPdWzTqV82042rInOcc5/CgDraK5/7H4w/6Duh /wDgmm/+Sq2rdZlt41uJEknCASPGhRWbHJCknAz2yfqaAJqKKKACiiigBDVe7tIb61kt503RuMEA kH6gjkH3HIqxRigE7O6OPsrqfw1rT2F64axuGLpNgLtYkDfgcAFmw2OAxVsASEJ2FZ2saYup2TRY TzlBMTSLuUHBBDDupBII7gmsrw7qbRSLpN35gdcpbtKxZhtHzROx5LqCCCfvoQwz8xq/jXmaSSa5 kdPRRRUGYUUUUAFFFFABRRRQAUUUUAFFFFABRRRQAUUUUAFFFFABRRRQAUUUUAFFFFABRRRQAUUU UAFFFFABRRRQAUUUUAVL++h06ylvLgkRxjJCjLMegUDuxOAB3JArnfC9pPqF9c+I9RAM1xiO1UHK xRD+765JPzchsblwHxVe5/4q7xHFbj59HsXLSD+Gdxxz6jOVA6ECTIwyGu0AwKt+6rdTX4I+bFoo oqDIKKKKACiiigAooooAKKKKACiiigAooooAKKKKACiiigAooooAKKKKAErE8Q6J/a9qjxP5d5Bl oXzjng4zg45VWBwcMqnDAFTt0UJ2d0OMnF3Rh+GdcOs2BFwnl39udlzFjGG5G4DJ4JDdzghlySpr crkPENncaLfR+INNQuVkAubcHHmK2AcE9Mnb1wAQGyBv39PZ3cF/aRXVtIJIZVDIwyMj6dvpVySf vIqcftLZlmiiioICiiigAooooAKKKKACiiigAooooAKKKKACiiigAooooAKKKKACiiigAooooAKK KKACiiigAooooAKKKKAEoorK1vVhpluFjMZupQ3lLI2EUKMtI5/hRRyT9B1YAkVd2Qbmf4l1eaNT p2n7jcvtErq20xhjhVB7Ox4B/hG5z90BtLRtHh0i0CLhpWCh3C7RgDAVV/hUDgD8SSSSc7w9pBVV v7vzHkZ2liEy4bcww0rj++w4x/AmEAUA56Sqk+i2NJe6uVfMWiiipMwooooAKKKKACuf8Q/8hvwn /wBhWT/0iuqfPa+KWuJTb6zo8cBYmNJNKldlXPALC5GTjvgfQVj38GuxeI/Cp1TUdOuYTqUgVLWw kgYN9juedzTOMYzxj8aAO1ooooAKKKKACiiigAooooAKKKKACiiigAooooAKKKKACiiigAooooAK KKKACiiigAooooAKKKKACiiigAooooAK5+8/5KHo3/YKv/8A0baV0Fc/ef8AJQ9G/wCwVf8A/o20 oA6CiiigAooooAKKKKACiiigBKwfEOjfbUF1bq/2mPAIjYK7qDkbSeN6n5lJ4zkHAZq3qKE2ndDj LldzF8O60NVtWimZDe2+BOFUqG6gOFPKglWGDyrKynlTW13rk/EGn3OmXP8Ab+mKDJEd08J4Dpxu /MAZ9NqsOVKv0OnX9vqljFeWzFopM9RgqQSGUjsQQQR2INXJJrmRUoparYuUUUVBAUUUUAFFFFAB RRRQAUUUUAFFFFABRRRQAUUUUAFFFFABRRRQAUUUUAFFFFABRRRQAUUUUAFFFFACVzPinVJl8rRd OJOoXg52tgxx885H3ScEA9gGYZ24OtrOrW+iaVPf3J+SJchQQCx7KM8cn149cCsnwxpFwjzazqeD qV4SxGD+6Q4+UZ5HQenCrnkEm46LmZpBL4pbGto+lQ6Pp0VpCBhR8xC43H6dh0AHQAADgCtGkpag htt3YUUUUCCiiigAooooAKKKKACiiigAooooAKKKKACiiigAooooAKKKKACiiigAooooAhngiure SCZFkikUo6MMhgRgg1yenTyeGvED6XdOWsrx99vKx6OSM5/3mIB/2yDyZcDsayte0aLWtMkt3wJM ExOf4Wx7c47HGDg8EHmqi7b7Fwa+F7M1aK57wtrEt7by2F9ldSsj5cwfrIOgf8cc9ORkfKVJ6GlK PK7Eyi4uzFooopCCiiigAooooAKKKKACiiigAooooAKKKKACiiigAooooAKKKKACiiigAooooAKK KKACiiigAooooAqahfQ6bYyXdwWEaYGFGWZicKqjuxJAA7kiuc0Wxm1i8/ti/CsjEPGAcq2DlAvq idQx+++XAACVXVn8Z60zo2NGtMbGH/LYsMlh/vKRg9kbIyZAY+zRFRQqgAAYAHarl7q5evX/ACNP gXmPoooqDMKKKKACiiigAooooAK5/wAQ/wDIb8J/9hWT/wBIrqugrn/EP/Ib8J/9hWT/ANIrqgDo KKKKACiiigAooooAKKKKACiiigAooooAKKKKACiiigAooooAKKKKACiiigAooooAKKKKACiiigAo oooAKKKKACufvP8Akoejf9gq/wD/AEbaV0Fc/ef8lD0b/sFX/wD6NtKAOgooooAKKKKACiiigAoo ooAKKKKAEIz2ri7gf8ITrH2tW2+H7whZ0xxaSdA4PZMDBB4GBggALXaVXu7WK9tZLa4QPFIu1lPc f0pxlb0LhJLR7MsdaK5Hw7dz6JqA8MalIzEAtps7gDzogOUyOCy+nHHbADN11Eo2FKPK7C0UUUiQ ooooAKKKKACiiigAooooAKKKKACiiigAooooAKKKKACiiigAooooAKKKKACiiigBKKK5LxRfTahP /wAI7pzZnmX/AEhgM7VP8J7Y7t/s4H3pEy4xuxxjzOxBaf8AFZa8moE7tE0+T/RR2uJMf6weo54I 7d/mZR2gAA4qrp9nFp1jDaQAiOJQoyck+5PcnqTVqiUrsqcr6LZC0UUUiAooooAKKKKACiiigAoo ooAKKKKACiiigAooooAKKKKACiiigAooooAKKKKACiiigAooooA5TxPp9xa3MPiLTF/0y0BEqdpo jjcD+X6A4Yqore0zUbfVdPivbVi0UgOM9VIOCp9CCCCPUGrhGRg1xZz4N8QFjkaJqDjPpbynv7Lj 8Av90Id1x95cvU1+ONuqO1oooqDIKKKKACiiigAooooAKKKKACiiigAooooAKKKKACiiigAooooA KKKKACiiigAooooAKKKKAErk/EV/Lqd+nh2w2Mzn/TGbO0JgEocezKWHoyrx5gZb/iTW20m1igtE 87VL0mKzgAyWbHLEf3V6nkDpkjOak8O6GmiWO13M17Md9zcMcs7Ek9fQFj2HUnqSTpH3VzfcaRSS 5mXdOsItOtRDEWY5LO7Y3Ox5JOOPwGAOgAAAq5RS1mZttu7CiiigAooooAKKKKACiiigArn/ABD/ AMhvwn/2FZP/AEiuq6Cuf8Q/8hvwn/2FZP8A0iuqAOgooooAKKKKACiiigAooooAKKKKACiiigAo oooAKKKKACiiigAooooAKKKKACiiigAooooAKKKKACiiigAooooAK5+8/wCSh6N/2Cr/AP8ARtpX QVz95/yUPRv+wVf/APo20oA6CiiigAooooAKKKKACiiigAooooAKKKKAMrXdHTWtONv5rQTowkt7 hRloZF+64+n6jNN0XUpbyGS2vkji1O1wl1FG2VyRw6/7LDkfiDyDWsaxtZsJw66rpsSPqVupAQna LiPqYiffqCeh9iwLXY0i01ys2aKp6ZqMOqadDe25by5VzhhhlPQgjsQQQR6irlBm007MWiiikAUU UUAFFFFABRRRQAUUUUAFFFFABRRRQAUUUUAFFFFABRRRQAUUUUAFFFRyypDE8sjqkaKWZ2OAoHUk 0AZXiHWk0TTxKAGuZnEVvGQTuc+w5IHXA5OMDJIBg8L6M+mW09xc7je3b75WcgvjnAYjjPJYgcAs QvygVmaLDN4n1hPEdzG0dnFuWwjkUhinTcQegJBbnqdnA8sM/ZAVctFyr5msvcXL16i0UUVBkFFF FABRRRQAUUUUAFFFFABRRRQAUUUUAFFFFABRRRQAUUUUAFFFFABRRRQAUUUUAFFFFABRRRQAlVNS 0+DVLCazuV3RSDB46HqCPcEA/hVuimCbTujlfC9/cWd1J4a1J83dqga3kJ/10PQYzzx754xyxDGu qrB8SaFLqkUF1YTJb6pZsZLWZ1yu7H3WxztIyDjnBPUEg3NE1aLWdNS6RDHIGMU8JOWhkU4ZD7g/ mMHvVSs/eNJpNcyNOiiioMwooooAKKKKACiiigAooooAKKKKACiiigAooooAKKKKACiiigAooooA KKKKAEqrf30Gm2Mt5cvsiiGT6k9AAO5JwAO5NWjXOWR/4SS9XUZoh/ZltITYqxz57jgzEeg5Cfi3 dcMuEb6vZEmiaXdm9uNa1YL/AGhcjZHCvItYRyIwe57sehPTgCt+jAoobJlJydxaKKKQgooooAKK KKACiiigAooooAK5/wAQ/wDIb8J/9hWT/wBIrqugrn/EP/Ib8J/9hWT/ANIrqgDoKKKKACiiigAo oooAKKKKACiiigAooooAKKKKACiiigAooooAKKKKACiiigAooooAKKKKACiiigAooooAKKKKACuf vP8Akoejf9gq/wD/AEbaV0Fc/ef8lD0b/sFX/wD6NtKAOgooooAKKKKACiiigAooooAKKKKACiii gAooooA5DVUl8K6wdbtllbS7t1XUYIxuEbngThevoG29eDg9R1ME8dzAk0MiyRSKGR0OQwPIIPcU ssSTxPFKivG6lWRhkMD1BFcjpcj+FNc/sW7djpt226wnc5Ack5jZv7x46/eJzlmY4v4l5o1XvrzR 2dFGaKgyCiiigAooooAKKKKACiiigAooooAKKKKACiiigAooooAKKKKACiiigBK5TXC/iTVf+Ecg ZhZw7ZdTlR9pxwUhBHOW6np8uOu7Famu6s+nWyR2yLNqN0/k2kJyQz+px0VRlmPoPpUmiaRHo1gI A5mmdjJcTsMNNI3LOfr+gwO1UnbU1j7q538jQijSKNY41VUUAKqjAAHYVJRRUmQUUUUAFFFFABRR RQAUUUUAFFFFABRRRQAUUUUAFFFFABRRRQAUUUUAFFFFABRRRQAUUUUAFFFFABRRRQAUUUUAIa5f UIU8NarJr0TOtldMiajFn5E7LMM9MZAbHVTnqvPUVFNDHcwSQzRrJFIpV0cZDA9QR3FCdioSs9di UEEZorntJlOk6k3h+dv3Qj8zTnYkl4h96Mk9SnA68qV6kE10NDCUeVi0UUUEhRRRQAUUUUAFFFFA BRRRQAUUUUAFFFFABRRRQAUUUUAFFFFACUUVznifWJYUTR9L3SaxejbEqHHkqeDK5/hUDJHqRgA8 0JNuyKjHmdinqk7+KtXfQLOWRdNgOdTnjOA/P+oDdcnB3Y6DIyDwerijSCJI41VI0AVVUYAHYAVR 0PR4ND0uKyg+baMu5HLt3J/kB0AAA4ArSqpNbLYcpX0WyFoooqSAooooAKKKKACiiigAooooAKKK KACuf8Q/8hvwn/2FZP8A0iuq6Cuf8Q/8hvwn/wBhWT/0iuqAOgooooAKKKKACiiigAooooAKKKKA CiiigAooooAKKKKACiiigAooooAKKKKACiiigAooooAKKKKACiiigAooooAK5+8/5KHo3/YKv/8A 0baV0Fc/ef8AJQ9G/wCwVf8A/o20oA6CiiigAooooAKKKKACiiigAooooAKKKKACiiigArP1bSrb WdPks7pco44YAEoexGQR+fB6EEEitCihOzugTsc54av54w+h6pKG1SzHLc/v4c/LKuSSR2PJII56 89FWNr2inU44Lm2ZYdTs2MlpcMPuMRgqcc7WHBH+FP0LXI9ZtpN0L2t7buYrq1k+9E47Z/iU9Qw4 Iqmr6o0klJcyNeiiipMwooooAKKKKACiiigAooooAKKKKACiiigAooooAKKKKAEqK5uYbO2luJ3W OGJS7ux4AHJNS1zsqnX9cSMEnS9PfMhD8T3A6LjuqdT/ALWB/CaZUI3euw/RLWe9vJNev45I55l2 W1vJwbeHPAI7O3DN+A/hrfo6dKKQSlzMWiiigkKKKKACiiigAooooAKKKKACiiigAooooAKKKKAC iiigAooooAKKKKACiiigAooooAKKKKACiiigAooooAKKKKACiiigDL1nSF1a1jCTNb3UEgmtrhBk xOOhx3B5BHcEil0fU/7Rtn82Iw3cDmG5iP8ABIAOnqpBBB7gitKuf1iBtJuX8Q2cRdkQJfQqcedC M/MB/fTJI9RkdxgNIvmXI/kdDSVHDMlxCk0TrJG6hkdTkMDyCCOoqWgzCiiigAooooAKKKKACiii gAooooAKKKKACiiigAooooASjNFVNS1C10rT5r68lWKCFdzsT+nuT0A7k0wSb0RU17W49EsPOMbT TyMI4IFPzSueAB/n6AnANbw5os9is2oanIs2r3h3zuo+WMdo0/2QMDPU4+mKmgadcarfp4l1eNln ZSLC2cY+yxN329nYdSecccfdHVVT91WRpJ8q5V8xaKKKgzCiiigAooooAKKKKACiiigAooooAKKK KACuf8Q/8hvwn/2FZP8A0iuq6Cuf8Q/8hvwn/wBhWT/0iuqAOgooooAKKKKACiiigAooooAKKKKA CiiigAooooAKKKKACiiigAooooAKKKKACiiigAooooAKKKKAKOq6lDo+mT386u6QjOyMZZ2Jwqr7 kkAfWs6y1vUBqlvYaxpcVi90rNbPDdeerFRko3yLtbHPGRweeKXxfBNN4ckeCJ5ntri3uzGi5Z1h nSVlA7khCMVnPrOn+JfEWhLo93FepYzyXlzJAdyxDyJIlRj2YmX7p5+U8cUAbXiDVJtG0r7Xb2yX M7XEFvHFJMYlLSzJECWCtgAvn7p6VJpk2sS+b/atjY2uMeX9lvHn3dc53RJt7eucnpjnP1m/8Oaj oEn9rvDLpL3LW8pnRhH5kUpBDnHADxEZPynHfIzl+G/7J/4Sl/8AhFfJ/sT7G32r7H/x6+fvXy/L x8u7b5m7b/s57UAdrXP3n/JQ9G/7BV//AOjbSugrktdk1KLxzojaXa2tzOdNvgyXVy0ChfNtOdyx vznHGPxoA62iuf8AtnjD/oBaH/4OZv8A5Frat2ma3ja4jSOcoDIkbl1VscgMQMjPfA+goAmooooA KKKKACiiigAooooAKKKKACiiigAooooASuY8RWF5ZXS+ItHUtdQJturYAlbqHrjA53r1BHPUYbgV 09FOLsxxlyu5S0vUbfV9Ngv7OQPBMu5WBB+o47g5FXa4y8jbwfrX9oQKRo97KBcRr0ikYgbse/GO /VfmzGq9hG6yIrowZWGQQcginKNttipxXxLZklFFFSQFFFFABRRRQAUUUUAFFFFABRRRQAUUUUAF FHes/VdUg0mzNxOWJLBI40GXlduFRR3JP/1+KASbdkU9cvJpWXR9OlC6hcrln/594ujSH37L6t7B saVhY2+m2MNlaRCK3hQIiDsP6/WqWi6bLZrcXd4ySaheOJJ3UcLgYWNf9lRwPXk961s0zSbSXKth aKKKRmFFFFABRRRQAUUUUAFFFFABRRRQAUUUUAFFFFABRRRQAUUUUAFFFFABRRRQAUUUUAFFFFAB RRRQAUUUUAFFFFABRRRQAUUUUAFBGRRRQBzluw8PaxFpp2Jpd4T9j6jyZepi9NpGSvphh02iuiqt fWUGoWclrcKWjkHY4Kkcgg9iDgg9iBWboeoTmWbSdSkVtStQCXC7fPiP3ZQPfoQOjA9sUGkvfXN1 W/8AmblFFFBmFFFFABRRRQAUUUUAFFFFABRRRQAUUUUAFFFFAEM80dtA800ixxRqWd3OAoHJJPYV yUEUni7Xftc8bLo9hIRFFIuDNKOpIPTHcdR904/eJT9dup/EOpr4e02QpHG6yX9yP+WaA8Kv+0SM ZPGQRhtrheotbWCytIra2jEcMShUUdhVr3Vfqa/BHzZYoooqDIKKKKACiiigAooooAKKKKACiiig AooooAKKKKACuf8AEP8AyG/Cf/YVk/8ASK6p8914pW4lFvo2jyQBiI3k1WVGZc8EqLY4OO2T9TWP fz67L4j8KjVNO062hGpSFXtb+Sdi32O542tCgxjPOfwoA7WiiigAooooAKKKKACiiigAooooAKKK KACiiigAooooAKKKKACiiigAooooAKKKKACiiigAooooAKKKKACiiigArn7z/koejf8AYKv/AP0b aV0Fc/ef8lD0b/sFX/8A6NtKAOgooooAKKKKACiiigAooooAKKKKACiiigAooooAKKKKACiiigCv d20N7aS2txGJIZVKOh6EGuW0G7m0C/k0DUnLRIQ1pct0ZWOFB9OePTdxhQ0YbsKyPEGjjVbL92E+ 1w5aIuSFbIwUYjnaw4Ppww5UVcGmuVlxlbR7M180Vz/h7WGuYY7W5L+btPlySABn2na6uBwJEPDY 4PDDg4XoKhpp2ZMo2FooooEFFFFABRRRQAUUUUAFFFFABRRRQAx3CKWYgKBkk9q5jRnfxHq7a5IG Fhas0OnI2BvP3Xm/H7q+g3cfNUPiO5m1vU4/DFjIVSQZ1CVescXBK+xII/76HBGcdTbW8NnaxW1v GscMSCONFGAqgYAH4VVuVXfU1+CPm/yJ6KKKkyCiiigAooooAKKKKACiiigAooooAKKKKACiiigA ooooAKKKKACiiigAooooAKKKKACiiigAooooAKKKKACiiigAooooAKKKKACiiigAooooASsTxDY3 MsEWoacM6lYkyQqDjzlP34jnswH4EKe1bdFA4y5XdFHStSt9X02G+tWJilGQGGCp7gjsQeKvVxty f+EQ8SteDCaLqjlpwBgQXHUv9GAyfoTnoK7IHPSnJWKnFLVbMWiiikQFFFFABRRRQAUUUUAFFFFA BRRRQAh6Vz3iLW5LICzs8teSbR8uCy7iQoUHjcxBAzwArMchCDo6vf8A9nWDSIFe4c7II2ON7noP oOST2UE9qyPDmni5kGrzFpFOfszSDDSZADTsP7z4AUfwoFA25K1UEt3si4rlXMzQ8P6NHommrCcP cSHzJ5ASdz/jzgcAZ54yckknX6UUUpNt3ZLbbuxaKKKQgooooAKKKKACiiigAooooAKKKKACiiig AooooAK5/wAQ/wDIb8J/9hWT/wBIrqugrn/EP/Ib8J/9hWT/ANIrqgDoKKKKACiiigAooooAKKKK ACiiigAooooAKKKKACiiigAooooAKKKKACiiigAooooAKKKKACiiigAooooAKKKKACufvP8Akoej f9gq/wD/AEbaV0Fc/ef8lD0b/sFX/wD6NtKAOgooooAKKKKACiiigAooooAKKKKACiiigAooooAK KKKACiiigAooooA5fxDprW0jatablG9ZLkRruZGUbROo7sq/Kw6smRyQAdfSNSXU7ISYRZkO2VEb cFbAPB7gggg9wQe9aFcfe2kvh3U0urJSbWVwsaAgAEn/AFBJ42szExk/ddiuQr7av4l5lxd1ys7D NFV7S7hvrZJ4H3I2exBBBwQQeQQQQQeQQQasCoIatoxaKKKACiiigAooooAKKKKAErG8R60uj6cW U/6TL8sK7C3PrgdcZHH8RKqOWFak80dtBJNNIscUalndzgKByST2FcloEMviLVpNfu0dbWOQrZxO uM44DYPIxzwf4mfqFQioq+r2RpBJe8+hqeGdGbS7OSe5Gb+6bfOSdxUZJVM98ZOT0LMzYG7Fb1FF KUuZ3Ibbd2LRRRSEFFFFABRRRQAUUUUAFFFFABRRRQAUUUUAFFFFABRRRQAUUUUAFFFFABRRRQAU UUUAFFFFABRRRQAUUUUAFFFFABRRRQAUUUUAFFFFABRRRQAUUUUAU9S0+DVNPmsrkExyjqvDKQch gexBAIPYgVgeF9Qns5m8P6kR9rthiNwMB17Y9scjnoCMkoxrqq57xPo8t7BHqFiGGoWfzx7MBpFH JTnjPcZ4zwflZgbi7rlZcJL4XszoaKytB1iLW9NW5Qr5inZKozgMOe/OCCCM84Izg1q1DT2ZMouL sxaKKKBBRRRQAUUUUAFFFFACVFcXEVrbyXE0ipFGpd3bgKAMkmpD3rkL+6uNf1UWFlIVijwwkABC DOPPIPBIZSsYPBZWfDBAaaV3YqMb6vYbb28vifUp3uoyLQfu51b+5nItx9cBpfX5U+badvZVXs7S CwtIrW2TZFGMKMk/mTyT7nk1YpyfRbClLmdxaKKKkQUUUUAFFFFABRRRQAUUUUAFFFFABRRRQAUU UUAFFFFABXP+If8AkN+E/wDsKyf+kV1XQVz/AIh/5DfhP/sKyf8ApFdUAdBRRRQAUUUUAFFFFABR RRQAUUUUAFFFFABRRRQAUUUUAFFFFABRRRQAUUUUAFFFFABRRRQAUUUUAFFFFABRRRQAVz95/wAl D0b/ALBV/wD+jbSugrn7z/koejf9gq//APRtpQB0FFFFABRRRQAUUUUAFFFFABRRRQAUUUUAFFFF ABRRRQAUUUUAFFFFABUF1bQ3ltLbXEayQyqUdGHDA9RU9FC0A422uZvDeuzQX7s9rOgb7S38QUAC R/8AaAwrn0VH6F9nY5zVHVdNj1WzMDsY5FYPDMo+aJx0YfqCOhBIOQSKxNA1Kazn/sa+UJJE3lpg /cOMheeqkZKN6KVb5kO62rrmXzNPjXmjqqKKKgzCiiigAooooASiiue8V6u9hYLZ2e5tRvWENuiH DZPBYemAevQdTwCQJNuyKhHmdjO1eaXxL4gi0WzdhZ2/7y8nQkAHJACnuwKsB6Nlgd0WK62CGK2h jghjWOKNQiIgwFA4AA9Kz9A0dNF0xIBsadsNM6jAZsAYA7KAAqjsAOtatXJr4VsOcr6LZC0UUVBA UUUUAFFFFABRRRQAUUUUAFFFFABRRRQAUUUUAFFFFABRRRQAUUUUAFFFFABRRRQAUUUUAFFFFABR RRQAUUUUAFFFFABRRRQAUUUUAFFFFABRRRQAUUUUAFFFFAHF6qknhLWX1q1UnTbxgLyEdFkzwyjs WyenVuCCXDJ18bpKiujBlYZBByCKbdW0N5ay2txGskMqFHRujA9RXK6Bcz6FrI8M3kheIoWsZH/i QZ+UHvgdv4Sp6KyKNH7yv1Rr8cfNfkdjRRRWZkFFFFABRRRQAlFBrG17Wl0m2ABUTyAldylggGMt tHLclQFXlmZV4zkG+iHFOTsil4k1aR/+JTpymW6mbyn2vswSM7dw5Ukckj7q/N1KBtTR9Ki0mz8o MrzOd00oXbvbAHA7KAAAOwAFUvDuivYob28DG+mXGHYMYlJyVyONxPzMR1OAPlVQN/FXJ2XKipNb LYWiiioICiiigAooooAKKKKACiiigAooooAKKKKACiiigAooooAKKKKACuf8Q/8AIb8J/wDYVk/9 Irqugrn/ABD/AMhvwn/2FZP/AEiuqAOgooooAKKKKACiiigAooooAKKKKACiiigAooooAKKKKACi iigAooooAKKKKACiiigAooooAKKKKACiiigAooooAK5+8/5KHo3/AGCr/wD9G2ldBXP3n/JQ9G/7 BV//AOjbSgDoKKKKACiiigAooooAKKKKACiiigAooooAKKKKACiiigAooooAKKKKACiiigBKw/EW inUbdbi2UfbYR8o3bfNXIOwnscgFW/hYA8jIO5RTTcXcE2ndGL4d1ldVsisjf6VAdsoI2k8kBiOx yrAj+FlZecZrarlPEOnyafdf27YfIyndc4H3eAPMwOowqq47qAw+aNc72mahHqdklxGCpPDoSCUb upx6fkeo4pyjbVbGkkmuZF6iiipMwoooJwKAKt/ew6dZSXU7bY09OpJOAB6kkgD3Nc54XsZtRu5f E2oL++uRttI+0cOTg/iOnsc4UuwqveE+LtdSxXJ0u2y0/pIMlcf8CwwH+zvP8SGuzwB0q/hj5v8A r8TWXuLl69f8h1FFFQZBRRRQAUUUUAFFFFABRRRQAUUUUAFFFFABRRRQAUUUUAFFFFABRRRQAUUU UAFFFFABRRRQAUUUUAFFFFABRRRQAUUUUAFFFFABRRRQAUUUUAFFFFABRRRQAUUUUAFFFFACVjeI 9FGs2AWJ/JvYGEttN02OPX2Pf8D1ArZopp2d0NNp3Rh+GNb/ALZ00GdDFfQHyrmFhgo44PHpkHoS MgjJxW5XHeIoZPD+sReI7SNjA7rHfxopJIOFD4HJ4wOmcqnQbs9ZBNHcwJNDIskUihkdDkMDyCD3 FOaW62Zc0n7y6k1FFFSZhRRQTgZoAqX17Fp9nJczZ2rgBRyWYnAUepJIA9zXOaFZy63qA8QX+GTa PscanKY5+ceq8naf4sluhRUrrnxjrc3O/R7Ztm7+GTjkL678nLf3MBf9a2O0ACgADAHar+FeZpL3 Fy9ev+Q6iiioMwooooAKKKKACiiigAooooAKKKKACiiigAooooAKKKKACiiigAooooAK5/xD/wAh vwn/ANhWT/0iuq6Cuf8AEP8AyG/Cf/YVk/8ASK6oA6CiiigAooooAKKKKACiiigAooooAKKKKACi iigAooooAKKKKACiiigAooooAKKKKACiiigAooooAKKKKACiiigArn7z/koejf8AYKv/AP0baV0F c/ef8lD0b/sFX/8A6NtKAOgooooAKKKKACiiigAooooAKKKKACiiigAooooAKKKKACiiigAooooA KKKKACiiigBtcc8UnhHW0eCN30i7OzYgJ8puyhe/faB1HyDlY1bsqr3dpDf2klrcxh4pVwy5x+RH IPuOlVF20exUZco+GaO4gSaGRZIpFDI6HIYHkEHuKlrkNNvLjw5qQ0nUZDJBM+YJ2AGSTjd6csQG A6OwIG1wE68c0pRaYTjbVbBXO+KNYeythY2YZ7+7+SNYzhlycAj0OTxnpgsflVq1dV1GHSdNnvp/ uRLnGQNxPAAycZJIH41h+GtOmuriTxBqOTcXA/0dCCPLT+9g8jIxgHBC9gzPlxXV7FQXKudmpoGj x6JpUVopVpeGmkVcB3wBwOygAKB2VQO1atFFS227szbbd2LRRRQAUUUUAFFFFABRRRQAUUUUAFFF FABRRRQAUUUUAFFFFABRRRQAUUUUAFFFFABRRRQAUUUUAFFFFABRRRQAUUUUAFFFFABRRRQAUUUU AFFFFABRRRQAUUUUAFFFFABRRRQAUUUUAQ3EEV3bSW88ayQyqUdGGQykYINcnoc8ug6/Nod5IzQy /vLaVz9/JPP+8ejf7aljgyrnseKx/EOiLrWnmNGEd1Ed8EpJG1vQkc4PTjkcEYYAi4tP3WXCSTs9 mbGaKwfDOtNqlm0F0pj1C2by542wGyDjOPw7cZzjIwTvCoaadmKUXF2YdK5HW76bXL1NC0w5Rift UxGUCqcEY/iAPBHQt8nIEmy94l1iS0SLTbEM+o3mUiVDyo7tnoO+M+hOCFNW9C0ZNHs9hIkuJMGa QDAJHRVHZVHAH4kliSbirLmZS9xc3Ut2FlBp1nFaW6kRxg4ySSx6kk9SxJJJPJJJq3SUVDd3dmYt FFFABRRRQAUUUUAFFFFABRRRQAUUUUAFFFFABRRRQAUUUUAFFFFABRRRQAVz/iH/AJDfhP8A7Csn /pFdV0Fc/wCIf+Q34T/7Csn/AKRXVAHQUUUUAFFFFABRRRQAUUUUAFFFFABRRRQAUUUUAFFFFABR RRQAUUUUAFFFFABRRRQBR1PURpdstw9pd3Me/a/2WLzGjGCdxUfMRxj5QTyOKTTNY07WIDNp15Dc op2t5bZKH0YdVPseaZq9/dWUVullbwXF3cy+TFHPcCFc7WYnOCTgKThQT7YBI56fwjHfatb6nr+q hNUfMVr/AGf/AKJhtpbarA+ZIQqscFiuFJ29aAOzoqnpaXsek2UepSRy36wItzJF9xpdo3leBxuz 2FXKAKt/fW+m2E97dyeXbwIXkbBPA9hyT7Cs7TvES3t+tlc6bf6dcSxmWBbxUHnKMZ2lGYAjI+Vs Nz0qHxr8vhmSYgmK3ubW4m4/5ZR3Ebyf+OK1R6tcQ3fibwxDbSpLKk8t22xt2IPs8ibuOxeSOgDp axtK8SWes6rf2NpHPmyWNzMygRzKzSLmM5yQGicZIHTjI5qv4lub260ZU0aGa9Wa4NvdNYzRCWON dwk2l3Vd25dn3sqST1Wsfw/ezDx5e2qeG7/T4BpVlEFka32wIj3W0kJK3yn7o25OVOQBgkA7mufv P+Sh6N/2Cr//ANG2ldBXJa7eT2PjrRZbfTLvUHOm3ymK1aJWA820+b946DHHrnnpQB1tFc//AMJF qn/Qm65/3+sv/kitqCR5reKR4ZIHdAzRSFSyEj7p2kjI6cEj3oAmooooAKKKKACiiigAooooAKKK KACiiigAooooAKKKKACiiigAooooAKKKKACiiigDL1zRrbXtMezudyHO6KVDh4n7MpHQ8ke4JHQm uG1P4r2Xghf7N8VxXcmqxlQBaQZ8+I5xKCSq4yuCAevYcqvplfKXx30W9sfiRealLGTaX0cMkUiq 20EIIyrHGN2Yycc8EU76WKUnax7F4f8AFOnfFjU/9DjuItJ0vy5riC4UK80rFgisFJBQbSSM88Ag 9vS6+cv2ctEvT4g1PXDHtsUtPsodlYeY7OrfKcYOAnPPG5fWvo0UN3VglJuy7C0UUUiQooooAKKK KACiiigAooooAKKKKACiiigAooooAKKKKACiiigAooooAKKKKACiiigAooooAKKKKACiiigAoooo AKKKKACiiigAooooAKKKKACiiigAooooAKKKKACiiigAooooAKKKKACiiigDivGkkPheSLxmGKRW rJFfoBnzYnZUyBj7wJU9shRk/KBXPWHx88L6pObW1s9US7cBbeOaAYmkLBVQeWzkEk+nY98Az/Hf RL3Wfh1usozK1jdx3UkaqWZkCuh2gA9N4Y5xhQT2r5i0XRrzXtWttNskzLPKke8g7I9zqgZyAcLl hz70733L5m0k1sfZXh7RJ7aabVtVbzdXuhh27QJxiNBkgDgZxnJAyWxmuhFFFEpXdyZNt3YtFFFI QUUUUAFFFFABRRRQAUUUUAFFFFABRRRQAUUUUAFFFFABRRRQAUUUUAFFFFABXP8AiH/kN+E/+wrJ /wCkV1T59d1GG4liTwnrM6I5VZY5bQLIAfvDdODg+4B9qx9Q1W8vvEnhWK40DUtPQanIwlupLdlY /Y7n5R5crnPPpjjrQB2tFFFABRRRQAUUUUAFFFFABRRRQAUUUUAFFFFABRRRQAUUUUAFFFFABRRR QAUUUUAcV4qOmXOrWdxceOU0Y6VcK0kAltRskeGVVz5ikq7K7EbsgqpwufmCaTceH9Q12xI8eJrl 5AzyWtq13aHD7GUsFhRSxCM/XPBNbXiLUpdMOlSCcW9pLfpFdzMBhIyj4yTwN0gjTP8AtU3UdVeP xLolhaXKubhpTcwDBIhEbESHuMOI19DvPtQBvUUUUAIQCCCMg9qo6fo2l6SZTpum2dmZTmQ20Cx7 z6ttHNX6KAIoYIrZDHBFHEhdpCqKFBZmLMeO5Ykk9yTSCCJbh7hYYxO6qjyBQGZVLFQT3ALNgf7R 9amooAK5+8/5KHo3/YKv/wD0baV0Fc/ef8lD0b/sFX//AKNtKAOgooooAKKKKACiiigAooooAKKK KACiiigAooooAKKKKACiiigAooooAKKKKACiiigAooooAq6hew6dYz3lw2IoULtjk4Hp71zvhWxn vbibxNqKYu7tPLt1P/LKDOQB/vHn6YOASwqtcK3jDxDNYMd2h6dKBcAH5biZcHYfUA9QemOQ24Fe 0Aq/hXmzWXuR5epyevWdxoup/wDCTaZCZdwC6lbIcGaIdJB2LqPXt3HIbo7G9t9Rs4ru0lWWGQZV h+oI6gg8EHkGrOK5Exf8Idq7zKxGhX0ih1I+WzmPAI9I24HPCnHQYFF+ZeaBe+rdTr6KAciioMgo oooAKKKKACiiigAooooAKKKKACiiigAooooAKKKKACiiigAooooAKKKKACiiigAooooAKKKKACii igAooooAKKKKACiiigAooooAKKKKACiiigAooooAKKKKACiiigAooooAKKKKAEoJx1orntau21S4 k8O2EjieWPN3cR/8usTcdf77DIUfVu3JuVCPM7GbO3/CcasLVF3eHbNg08hPy3ko5CAd4x1JPB4w Dww2vEmiLrmkSWysI7hPnt5ckbHwR1HIBBKnHOCcc1oWNlb6dZRWlpGI4Il2qoyf1PU+55NWatz1 06Dc9Vy9DC8Ma02r6fsuVMeoW4CXUTDBVuRnHuQemRkEAnGa3a5TXrV9E1ZPFFqhMSr5epRLn5os f60D+8uFz6qOoxXTW88VzbxzwOskUih0dTkMCMgilJLdDmk/eXUmoooqTMKKKKACiiigAooooAKK KKACiiigAooooAKKKKACiiigAooooAKKKKACiiigArn/ABD/AMhvwn/2FZP/AEiuq6Cuf8Q/8hvw n/2FZP8A0iuqAOgooooAKKKKACiiigAooooAKKKKACiiigAooooAKKKKACiiigAooooAKKKKACii igDE8SX0tta2tnb20FxcalcfZI0uf9UMo7sXHcBY2478DjOayNJtpvCur2VhJYaGlvqkjRLLpdib QrKqNIA6bm3Aqj/NkYI6c1a8SX+kXJOn30OtCWCRZY57LTLqTy5MZDJJHGVJwcdSOSD3FU9FbTrn XLaWa88SaheIHFu+paXNBFDlTuORBHGCRxubnnA68gHaUUUUAFFFFABRRRQAVz95/wAlD0b/ALBV /wD+jbSugrn7z/koejf9gq//APRtpQB0FFFFABRRRQAUUUUAFFFFABRRRQAUUUUAFFFFABRRRQAU UUUAFFFFABRRRQAUUUUAIayNd1C4t4orKwXfqN5lIOOIwPvSN/srkH3JA71dv7+20yxmvbuURW8K F3Y9h/U+1ZPh6zupprjXNSj8u8vAFjhZcG2gH3Y/rklm9z7CnbqaQVveZpaVplvpGmw2VuG8uMfe c5Zj1LE9yTkn61eoxRSM223di1DcQRXVvJbzxrJFKpR0cZDKRggipqKAOd02e50nUl0W+zJbupNh dk5LqBzE/wDtqOQf4lGeoauhqlqWmwarYyWtxvCtgq6Ha8bDkMp7MDgg1R0O/uGeXStTlV9StQCz hdonjP3ZVHv0IHRgR0xkNHaa5lv1NyiiigzCiiigAooooAKKKKACiiigAooooAKKKKACiiigAooo oAKKKKACiiigAooooAKKKKACiiigAooooAKKKKACiiigAooooAKKKKACiiigAooooAKKKKACiiig AooooAKKKKAEooqjquqW+kae93cb2AIVI413PI54VFHdieAKECTbsivrepz2aQ2unwLPqN0xSCNj hVx96Rz2Rc8+pIA5IqfS9MTTLQx7zLNIxknnYANLIerHH0AA7AADgCquh6ZPbJLf6i/m6pd4aZu0 S/wxJ/srn8TknrWzQaSaS5ULRRRQZjSAwIIyDXKaaW8La0uiyk/2XeuW05yvELYy0JP5lc9sjnFd ZVDV9Mi1fTpLSQlGJDxyr96J1OVce4IBpp9C6cktHsy/RWToupSX0UtveJHFqNo3l3MaNkZxkMvf aw5GfcdQa1qCZRcXZi0UUUhBRRRQAUUUUAFFFFABRRRQAUUUUAFFFFABRRRQAUUUUAFFFFABRRRQ AVz/AIh/5DfhP/sKyf8ApFdV0Fc/4h/5DfhP/sKyf+kV1QB0FFFFABRRRQAUUUUAFFFFABRRRQAU UUUAFFFFABRRRQAUUUUAFFFFABRRRQAUUUUAYPinUrnTrWxW3uY7Rbu8W3lvJFDLbqVY7sHjJZVQ Z4y469KxtE12/lm0a0k1I3s8moajb3AZIw7W8UsypKwUDGDHEuQADvra1TQrq5nmuLHU5IXmAEtr dJ9otZRjGDGxyvA/gZfUg1keH7/TdI1/+wP7B0/TtRnUuzaUEaJwBnL7Qrp/wNcZ4DE0AdpRRRQA UUUUAFFFFABXP3n/ACUPRv8AsFX/AP6NtK6CufvP+Sh6N/2Cr/8A9G2lAHQUUUUAFFFFABRRRQAU UUUAFFFFABRRRQAUUUUAFFFFABRRRQAUUUUAFFFFACUUVh+ItRuLeGHT9OI/tO/JjgPGI1H35Tns oP4kqO9NK44xcnZGdeRS+KvEMcCkDRdLmDTEP/x8XC/wYH8KcZzkE5GMjI63pVHSNMh0fSrewgyY 4VxubksepY+5JJPuavUN3KnJPRbIWiiikQFFFFACVka7ps93DHdWDrFqVoS9u7D5W/vRt/stjB9O D1ArXopjjJxd0ZmiazBrmn/aIQUkRzFPCx+aGVfvI3uP5EHvWnXMa5p9xpt//wAJDo8DPchQt7bp /wAvUQ6cd3XnB64yOeBW3pmpWmr6fDfWUokglGVYdvUH3FNrqipxXxLYu0UUVJAUUUUAFFFFABRR RQAUUUUAFFFFABRRRQAUUUUAFFFFABRRRQAUUUUAFFFFABRRRQAUUUUAFFFFABRRRQAUUUUAFFFF ABRRRQAUUUUAFFFFABRRRQAUUUUAFFFNLBVJJAA5JNAEc88VtBJPPIscUal3djgKBySaxdMgutS1 E6vqERijTK2Ns6/NEp4Mj+jt6fwrx1LVWhB8W3qXRcjQ7aTdDGP+XyRTw7f9M1I4HcjJ4Az1HSns aP3FbqLRRRSMwooooAKKKKAOc1+CbT7uLxDZqzyWyGO7gU/663zk4H95OWX8R/FW7BPFdW8dxBIs kMqh0dTkMpGQRUpGQRXL6Or+HdWbQ5NxsLktLpznGEP3nh/D7y+2f7tNamvxx81+X/AOpooopGQU UUUAFFFFABRRRQAUUUUAFFFFABRRRQAUUUUAFFFFABRRRQAUUUUAFc/4h/5DfhP/ALCsn/pFdV0F c/4h/wCQ34T/AOwrJ/6RXVAHQUUUUAFFFFABRRRQAUUUUAFFFFABRRRQAUUUUAFFFFABRRRQAUUU UAFFFFABRRRQBi32i3Wp3shutXuI9P4CWln+4Lcc75Ad55z90pxwc1e0/TLHSrb7Pp9pDaxZyViQ Lk+p9T7mrlFABRRRQAUUUUAFFFFABXP3n/JQ9G/7BV//AOjbSugrn7z/AJKHo3/YKv8A/wBG2lAH QUUUUAFFFFABRRRQAUUUUAFFFFABRRRQAUUUUAFFFFABRRRQAUUUUAFFFFAFW+vYNOspry6kEcMK F3bGePYdz7d6wPDNncXtzN4l1FWW6vUC28DAf6NB1VfqeCff06VT1DPi/wAQtpS86Tp7hrpu00uT 8noQMEd+d3QqprtAMDFW/dVupr8EbdX+X/BFoooqDIKKKKACiiigAooooATGetchqFrP4V1WbWbC IyaddOGvrZOzHjzAPX1P/fWRho+vpkkaTRtHIqsjDDKRkEehpxdioSs9diO0uoby1juLeQSQyLuV h3FT1xm+XwdqoVnZ9Guck7jkxMBktnvgAlv7ygsfmRzJ2IYMAQQQRkEU5R6rYJRsPoooqSQooooA KKKKACiiigAooooAKKKKACiiigAooooAKKKKACiiigAooooAKKKKACiiigAooooAKKKKACiiigAo oooAKKKKACiiigAooooAKKKKACiiigBK4++mbxjqMmkW0jrosDYv5ozg3B/54hh0X+9jkjjgEFpd d1C51fUG8OaTKUcAG+uE/wCWKH+HPZiPx7DGS6dBp2n22l6fDZWkQjgiXaqj+Z9SepPcmr+DXqaJ ciu9yaGGO2hSGGNY4kUKiIMBQOAAB0FS0UVBmLRRRQAUUUUAFFFFACVnaxpUer2DW7sY5ARJDMo+ aKReVdfcH/DvWjRQCbTujJ0PVX1C3lhugkeo2j+TdxJnAbqGXPO1hhh7H1BrWrkfEkc+iazb+JLO N3jCiC/iXJ3x5yGx/eHOOM5IGQNxrqbeeK6t4riCRZIZVDo6nIZSMgim1pc0qRWklsyaiiikZhRR RQAUUUUAFFFFABRRRQAUUUUAFFFFABRRRQAUUUUAFFFFABXP+If+Q34T/wCwrJ/6RXVdBXP+If8A kN+E/wDsKyf+kV1QB0FFFFABRRRQAUUUUAFFFFABRRRQAUUUUAFFFFABRRRQAUUUUAFFFFABRRRQ AUUUUAFFFFABRRRQAUUUUAFFFFABXP3n/JQ9G/7BV/8A+jbSugrn7z/koejf9gq//wDRtpQB0FFF FABRRRQAUUUUAFFFFABRRRQAUUUUAFFFFABRRRQAUUUUAFFFFACVheJtVnsbOGz0/Y2q37+RaKx4 B/ikPB4Rcnoew71q3d3BY2stzcyCOGJdzMRn8gOSfYda5zw1bzaxeN4pv0dJJ4/Ls7ctkQQZyDxx ubqSM8HrjgVFWXMy4RXxPZGtoGiw6DpqWkTF3J3Sykcu2AM9SegA5JOAMknk6tGKKlu7uyZNt3Yt FFFAgooooAKKKKACiiigAooooArXdpDfWz29wm6NsdyCCDkEEcgggEEcggEVy+iXkvhy+XQdRf8A 0UnFlOQAuMgBOOAMkAdArYT5Q0W/sDWbrOlRavYNbyBNwyUZ0DqDgjlT1UglSO4JHeqi7aMuLVuV 7GlmjrXL6Rq02nzjTNSLgB1jjklcu0TN92N3P31bB2Sn72Nj4kHz9Rmk1Ylpp2YtFFFIQUUUUAFF FFABRRRQAUUUUAFFFFABRRRQAUUUUAFFFFABRRRQAUUUUAFFFFABRRRQAUUUUAFFFFABRRRQAUUU UAFFFFABRRRQAUUUUAJXPeI9bmtGi0vS0E2r3ZAjX+GBTn9657AYbA5LYOAQrYm13XP7ORre22ve sgb5lLLCpO0OwHLEn5VQfM7cDADMrPD2h/YI2u7rdJqNwS8skhDMM44yOM8Lkjj5QAAioq0tNWXF L4nsWNB0SHQ9PFujGWV2Mk8xHMjk5JP4+pJ7kkkk61FAqb31ZMpOTuxaKKKBBRRRQAUUUUAFFFFA BRRRQBFLEs8TxSIrxuCrKwyCD1BFcl4Zlk0HVp/DF0zGHc0unyOSdyElimT1I9znh+AqiuxrD8S6 K2r2CPbP5OoWria0mBwVcdAT/dPQggj1Bxiqi7aPZmkGmuV9TczzQKx/DutDWtP3SRmC8gYxXUB6 o49PY9R+R5BA2KTTTsyGmnZi0UUUhBRRRQAUUUUAFFFFABRRRQAUUUUAFFFFABRRRQAUUUUAFc/4 h/5DfhP/ALCsn/pFdV0Fc/4h/wCQ34T/AOwrJ/6RXVAHQUUUUAFFFFABRRRQAUUUUAFFFFABRRRQ AUUUUAFFFFABRRRQAUUUUAFFFFABRRRQAUUUUAFFFFAEVxPFa28txPIkUMSF5JHbCqoGSSewxWbp niTS9XuGt7SaXzgnmCOe3khZ0zjeokVdy8j5lyORVTxrj/hGX3/6n7Xaefnp5X2iPzM+2zdml1zH /CS+F9n+u+1zbsdfJ+zy7vw3+V+lAGnqWqWekW6z3spRGbYgVGdnbBO1VUFmOAeAO1Rabr2natNJ DayyLcRqHeC4gkglCnodkiq2PfFXbhZmt5Ft5EjnKERvIhdVbHBKgjIz2yPqK5LTotWh+ISrrl1a 3craZKbOS0hMCxp5sXmqyMznLHysHd/C3AoA7OufvP8Akoejf9gq/wD/AEbaV0FclrupQaX460We 4ju3RtNvkAtbSW4bPm2h+7GrEDjrjH50AdbRXP8A/CZaZ/z665/4Ir3/AONVtwTLcW8U8YkCSIHU SRsjAEZ5VgCp9iMigCWiiigAooooAKKKKACiiigAooooAKKKKACiiigAooooASijNc74u1ibT9NS 0scnUr9hBbAHBXJAZ84OMZHOCMlc8U4xcnYcYuTsjNvZG8Wa7/Z0ZYabaMTIynHmMCVLf99blX/a R24KIT2KIsUaoihVUYAAwAKztE0eHRrJYYzvkIXe4GAcAAADnCgAADJ9SSSSdSnJ3emxU5KyitkL RRRUkBRRRQAUUUUAFFFFABRRRQAUUUUAFFFFAGVrOkRarasMIs6oyo7LkEN1Rh/EhwMj2BGCARn6 Dq8iOmm37OJdxjheQ5YsoyYnP/PQL8wP8afOM/NjpKw9d0f7cn2iCPdOAFdA+wyIDuGG7Op+ZD2O eQGJqoyto9i4tSXKzcorB0DWzelrC8JF9ED99NhlVSAWx2IJAYDplSPlZSd6k1ZktNOzFooopCCi iigAooooAKKKKACiiigAooooAKKKKACiiigAooooAKKKKACiiigAooooAKKKKACiiigAooooAKKK KACiiigAooooASsrWdWXTIAieW13KrGNHbaqqv3pHP8ACi5GT7gdWAMurarDpNmZpRudm2RRAgGR 8E4GenAJJPAAJOACaxNG06fUroanqCkh9snzgjzWGSg2nlY0zlQ3JYliAwBqkklzMuMb6vYn8P6S edSvd8k8jmSPzV2sCRgyMvZyOAP4Fwox827pKTpS1LbbuxSlzMWiiigkKKKKACiiigAooooAKKKK ACiiigAooooA4/XbWfRddXxDYxl/NQR3MSceaRgAHtkjAUnoyqOFdzXUWl1De2kN1bSCSCZA6OOj KRkGlubeK7tZbadBJFKhR0PRgRgiuV8N3EujavN4fvXJ8wmW3dv4jyWH/AgC/wDveaOiirXvK3VG r9+N+q/I7GiiioMgooooAKKKKACiiigAooooAKKKKACiiigAooooAKKKKACuf8Q/8hvwn/2FZP8A 0iuqfP4r062uZIHttYLxsUYx6LeOpIOOGWIhh7gkGse/1+z1XxJ4Vgt4dRR11KRybrTbi3XH2O5H DSIoJ56Zz19KAO1ooooAKKKKACiiigAooooAKKKKACiiigAooooAKKKKACiiigAooooAKKKKACii igAooooAKKKKAIbiCK6t5be4jSWGVCkkbrlWU8EEdxis7TPDml6RcG4tIZTMU8oST3EkzImc7VMj NtXgfKuBwK16KAMqXw9pk1h9iaBxB9okuR5czo6yu7OzK6kMpLO/Q/xY6U7TNC0/SJJZLSGTzpQB JPPO88rAdAXkZmwMnjPetOigArn7z/koejf9gq//APRtpXQVz95/yUPRv+wVf/8Ao20oA6CiiigA ooooAKKKKACiiigAooooAKKKKACiiigAooooAKKKKAK93dQ2VpLdXMgjhiUs7HsK5jw5aza1qkvi XUYSjkmGyhY58mNcgn03ElgSPzIxhmoTy+JvEC6ZbOVsbN900inrIpIz/wABYYX/AGwx6xDd1kEE VrbxwQRrHFGoREUYCgDAAq37qt1NV7kfN/kTUUUVBkFFFFABRRRQAUUUUAFFFFABRRRQAUUUUAFF FFABRRRQBz2t6IblvttnvFypDlY2CuWUEB4yeFkAJHPyupKPlTlZtE1sX4FtclBeKpYFFKpOoO0u inlcN8rIfmRuDkFWbZFc9rejl5xe2schYsHkEDBZFdRhZo88bwPlIPDodrbgNpafRmi9/R7nRUVi 6Jrf9oKtvclFvNm8FVKpcIDgugbkYJAZD8yMcHIKs21SasZtNOzFooooAKKKKACiiigAooooAKKK KACiiigAooooAKKKKACiiigAooooAKKKKACiiigAooooAKKKKACiiigAooooAQmqWo6jFptuskiv JJI3lwwRAGSZyCQqgkc8E5OAACSQoJBqOow6bbrJIrySO3lwwRAGSZyCQqgkc8E5OAACSQoJHO2V lca7d/bLz5omyskqMQmwEfuYeATHkAvIceZtHGzaqNK2rKhDm9B2n2EuuX8t7fyRyxoTGxiJMZwc mGM/88wVG9usjDnaqBK60AAcUyONIY1jjUKigBVAwAPQU+le+rCUr6LYWiiigkKKKKACiiigAooo oAKKKKACiiigAooooAKKKKAExWD4n0RtWs45rV/K1C0cS20o6ggg7c+hwPbgZBGQd7tRQm07oqMn F3Rj+HdbTW9O81l8q6iYxXMP/POQcEfT079jgggbFcdrFvN4e1v+3LRC8M5VbiJR9/nBX6nqn+3l f+WpI6y3uIbu2iuIJFkhlQPG6nIZSMgirkk/eQ5xSd1syaiiioICiiigAooooAKKKKACiiigAooo oAKKKKACiiigArn/ABD/AMhvwn/2FZP/AEiuq6Cuf8Q/8hvwn/2FZP8A0iuqAOgooooAKKKKACii igAooooAKKKKACiiigAooooAKKKKACiiigAooooAKKKKACiiigAooooAKKKKACiiigAooooAK5+8 /wCSh6N/2Cr/AP8ARtpXQVz95/yUPRv+wVf/APo20oA6CiiigAooooAKKKKACiiigAooooAKKKKA CiiigAooooASue8V6zJpmnCC0JOoXWVhC4yoyAWGeM5ZQM8FnQHrW3dXMNlazXVxIscEKF3duiqB kk1y3hy1m1rUZfEl/GyLIcWcLD7iDIB/U/izHJBXFxVveZcIr4nsjZ0DR49F0uK2XBl2gzOM/M2P fnHYZycdSTzWtRRUNt6smUuZ3YtFFFAgooooAKKKKACiiigAooooAKKKKACiiigAooooAKKKKACi iigDmtb0fYrXlqZ1VZfPdIRl43xjzYeuHAPK4KuNylTuObei6z9tAtrlovtYQurw/wCruYwceZHy eMkBlJJQnByCrNsHmuf1rQvNzeWKutwHErLEQrM4GBIhPCygEjJ+V1JR8qQVafRml+dWe50NFYWj a+t9stroxrdnIVkBVJ9vUqDyrD+KNvmQ5HIwx3RQ00ZtNOzFooopAFFFFABRRRQAUUUUAFFFFABR RRQAUUUUAFFFFABRRRQAUUUUAFFFFABRRRQAUUUUAFFFFACVS1HUYtNt1kkV5JHby4YIgDJM5BIV QSOeCcnAABYkKCQmo6nFpyICrzXEpxDbx4Lyt6D+pOAO5Fc9ZWFzr8xvL0xvBMNjyLyjRdfKhzj9 2SBukIzLjoE2baSsrsqMeb0Cxs7jXb2W6ubkFChiklgJ27TgmGF+DsGBvkHzO2OVCBV6yONIYljj QKijCqowAPQUqoqKFVQABgAdqd0qW23djlO+i2FooooICiiigAooooAKKKKACiiigAooooAKKKKA CiiigAooooAKKKKAKt9aRX9lNazA+XKhU7TgjPcHsfeua0G8m0fWn8P3+F87Mtq4GEdjkuF9AcM4 Xkr84+6ELddWB4n0V9VtI5rZil9bEvCy4BzwcAn3CsO2VGcjINQfR7M0g0/dZv8Aaisfw7rSa5pS XOAlwh8u4jAI2PgHoeQCCGGecEZ5rYpNWdiGmnZi0UUUhBRRRQAUUUUAFFFFABRRRQAUUUUAFFFF ABXP+If+Q34T/wCwrJ/6RXVdBXP+If8AkN+E/wDsKyf+kV1QB0FFFFABRRRQAUUUUAFFFFABRRRQ AUUUUAFFFFABRRRQAUUUUAFFFFABRRRQAUUUUAFFFFABRRRQAUUUUAFFFFABXP3n/JQ9G/7BV/8A +jbSugrn7z/koejf9gq//wDRtpQB0FFFFABRRRQAUUUUAFFFFABRRRQAUUUUAFFFFACUZorA8U61 LpdjHBZLv1K8byrZAATnu2PbPfjJUEgHNOMeZ2HGLk7IzNalfxNr0OgW7N9gtpFm1B0P3tvIjz6Z x6HPQ/Iwrr0RYkVEUKqjAAGABWZ4d0WPQtHhtFw0v355ckmWQ/eYk8nn15wBWtmnJp6LYqcl8K2Q tFFFSQFFFFABRRRQAUUUUAFFFFABRRRQAUUUUAFFFFABRRRQAUUUUAFFFFABRRRQBga5oSXR+1W8 AebIMkayGPzQOhDD7rr1VuoxjIBNRaVrjxslrqMjNmTyY7qRAjF+MRyqOEk5GMfK+QVxuAro8Vla rosGpK7gIlw0fll2QOkic/JIh4dOTwfU4IJzTUraPY0UlJWkauaK5TTNam0m7XStYEkSEf6PPK5f AyBsaQ/fGSAshwTlVfDlTL1fWhqxEotaMWiiikIKKKKACiiigAooooAKKKKACiiigAooooAKKKKA CiiigAooooAKKKKACiiigBKydV1lbDMEISW78syFXfakSc/vJG/hTg+5wcA4OIta11bHdbWzI95t BYsrMkCk4DOF5Yk8LGPmduBgbmWvpGgYAub8SNI0gm8qVlZjIMYklI4eTgdPkTCqgAUE0ly6tFRj 1exBp+kS6lI9xe+Y8Uo/fSTJse6HZNn/ACyhH9zq38f8W/qgAKAMdKKltvVhKV9FsLRRRQSFFFFA BRRRQAUUUUAFFFFABRRRQAUUUUAFFFFABRRRQAUUUUAFFFFABRRRQBxeqRv4S1ldbgVn0y5kEd7E o5j3NkOB3AYk+uXYYbcuzsI5EljWSNlZGAKspyCPUVFeWsV9aS2s6kxSqVYA4P4HsfeuZ8PXc2j6 vL4bvT8vMllJjAZeSUHp3IHbDgAKik38St1Rq/fjfqjr6KKKgyCiiigAooooAKKKKACiiigAoooo AKKKKACuf8Q/8hvwn/2FZP8A0iuq6Cuf8Q/8hvwn/wBhWT/0iuqAOgooooAKKKKACiiigAooooAK KKKACiiigAooooAKKKKACiiigAooooAKKKKACiiigAooooAKKKKACiiigAooooAK5+8/5KHo3/YK v/8A0baV0Fc/ef8AJQ9G/wCwVf8A/o20oA6CiiigAooooAKKKKACiiigAooooAKKKKACiiigCKWR IYnlldUjQFmZjgKB1JNcn4ail17WZ/FN1E6QyIItNjkBG2Hk79p6Fs9cA4JHIwat62z61qcXh+Bv 3A2z6iwJ4i/hi+rkc/7Ib1FdIMDpVXsrGvwR82OoooqTIKKKKACiiigAooooAKKKKACiiigAoooo AKKKKACiiigAooooAKKKKACiiigAooooAKKKKAKOo6Zaaram3u4hInOPVTgjIPbgkfQkdDXNQ3Wq eEpktbxZb/SSwSKdRuljzwAQOvpt9fu53LGvZVFPDHcwPDNGskUilXRxkMDwQR3FVGVtOhcZ6cr1 Q20u4L62jubWVZYXGVdTkGp65C60jUfD13Jf6IjXEUh3TWzPy2OOe7cdG5cYx842qu3ouu2eu2nn WrMrqdssEgAkiboVYeuQRxkccE0OOl47BKDSutUatFFFSQFFFFABRRRQAUUUUAFFFFABRRRQAUUU UAFFFFABRRRQAUUVXu7uCxtpLm6mSGFBlnc4AoAmrlb/AMSXWo3H9n+HI/OkYZe8I/doucZUnIPQ gNgrkHAfayiqbm88ajZbxyW+itwXkXHnL6kHhgey/dwfnzzFXU6fp1tp0HlW6YydzsTlnbAGSe5w APwA7VekfNmnKofFv2M3R/DyWBWe5fzrhWLrjO1WIwW5JLORwXPOMgbQcVvUUd6h3buyJScndi0U UUCCiiigAooooAKKKKACiiigAooooAKKKKACiiigAooooAKKKKACiiigAooooAKKKKAErB8T6I+r WKzWjeXqdofOtJfRwQdp/wBkkDI6euelbxpKE2ndFRk4u6Mvw/rMevaNBfopjdhtlibIMbjhlOee vT1GD3rVrmLqGLw1rg1GBfLsNRlEd6oJ2xynhJcY43H5WPGcqexz04pyte6HOKWq2YtFFFIgKKKK ACiiigAooooAKKKKACiiigArn/EP/Ib8J/8AYVk/9Irqugrn/EP/ACG/Cf8A2FZP/SK6oA6Ciiig AooooAKKKKACiiigAooooAKKKKACiiigAooooAKKKKACiiigAooooAKKKKACiiigAooooAKKKKAC iiigArn7z/koejf9gq//APRtpXQVz95/yUPRv+wVf/8Ao20oA6CiiigAooooAKKKKACiiigAoooo AKKKKAErO1nVBpVj5qxNPcSOIreBSAZZD0UHt6k9gCe1XpJFiQu7BVUZJJwAKwNJA17UE8QNuFoq FNPR0wdrY3Tc8/NgAf7PP8RAC4RXxPYv6NpjabZETyma8lYy3MxP35DjOPRRgKB2CgVp0UUEttu7 FooooEFFFFABRRRQAUUUUAFFFFABRRRQAUUUUAFFFFABRRRQAUUUUAFFFFABRRRQAUUUUAFFFFAB RRRQAhrB1PwzBeXp1KyuJtP1MLhbiA8Nxj50PyuOBkHrtXngY3u1FCdthxk4u6OctPEFzYeTbeJ4 oLG4kbZHcxNm3mbGcAnlCecK3XHBPbo81FPbw3UDwTxJLE4wyOoKsPQg1gSaXq2j5fQriOe0XGNN uiQqgdo5OSvTgEEem0U9zS0Z7aP8DpM0VjWPiOzup1s7gPY6h3tLkbXPJHyno44PKkitmkZyi47i 0UUUCCiiigAooooAKKKKACiiigAooooASis3Udd03SmjjvLpEllOI4VBeSQ/7KLlm/AVkRf8JJr2 4zr/AGHp7ZAVSHunXnHPKx5GD3YdOOtFrlqm2rvRF3V/Ettp0v2S2hkv9TbASztsF+cAFz0ReRye 2euKgi8Oy6jcR3viGZbuWNt0VpHkW8Jxj7p++3X5m9eAta+n6ZZ6VbeRZQLFHuLN1JZj1ZieWY+p 5q5ii+mg+dR+AAAOgpaKKDMKKKKACiiigAooooAKKKKACiiigAooooAKKKKACiiigAooooAKKKKA CiiigAooooAKKKKACiiigAooooAr3drBfWk1rcxiSCZCjoejAjBFZWiXU9vPLol9Iz3Nsu6GaRwW uICcKx/2h91vfB/iFblY+v6dNd28d3YhRqVkxltmP8Rx80Z/2WHB/A9hQaQafuvY2KKqabfRalp8 V3CHVXHKSDDIwOGVh2YEEEeoq5QZtNOzCiiigAooooAKKKKACiiigAooooAK5/xD/wAhvwn/ANhW T/0iuq6Cuf8AEP8AyG/Cf/YVk/8ASK6oA6CiiigAooooAKKKKACiiigAooooAKKKKACiiigAoooo AKKKKACiiigAooooAKKKKACiiigAooooAiuJ4rW3luJ5EihiQvJI7YVVAyST2GKzdM8SaXq9w1va TS+cE8wRz28kLOmcb1EiruXkfMuRyKqeNcf8Iy+//U/a7Tz89PK+0R+Zn22bs0uuY/4SXwvs/wBd 9rm3Y6+T9nl3fhv8r9KANDVta0/QrVLjUbjyY5JBFGAjO0jnJCqqgsx4PAHanaZq9lq8cj2UrMYm 2yRyRNFJGcZwyOAy8c8in6jd2en2hvb1lWOA7lZl3EMflG0dSx3bQByc471n6LZXLahfa1exmCe+ SKNLYkEwxR7yoYjguTIxOOBwOcZIBuVz95/yUPRv+wVf/wDo20roK5LXdSg0vx1os9xHdujabfIB a2ktw2fNtD92NWIHHXGPzoA62iuf/wCEy0z/AJ9dc/8ABFe//Gq24JluLeKeMSBJEDqJI2RgCM8q wBU+xGRQBLRRRQAUUUUAFFFFABRRRQAlFFZHiDWYtD0t7pyDITtiQ/xNyeg5OACcDnAOATQk3ohx i5OyKGt3H9samnhq35R1EuoOMjZDnhMj+Jzx/u7j6V0iKsahEAVVGAAOAKwvCujy6bYS3F6S2pX0 hnuWY5IJ6J/wEcccZzjAOK36qVk7Iqcl8K2QtFFFSQFFFFABRRRQAUUUUAFFFFABRRRQAUUUUAFF FFABRRRQAUUUUAFFFFABRRRQAUUUUAFFFFABRRRQAUUUUAFFFFABRRRQBR1PSrHWLNrTULaO4gb+ Fx0PTIPUHnqOa5h9F8R6Ad+i6jJqNoDn7HdkNIoznCsSA3oASgHctXaGj2qlKxcako6LY5Kz8cQf aBZ6pZ3Fpd4yI1jZy2P7qY3n3IUr/tGt6y1ix1B2jt7gGVRuaJ1KSKPdGww/EVNeWFpqNube9tob iFuTHKgZc/Q1gX3gewukVEurtFQ7kjncXSKfZZg+B7Lj2xTtB7O39f10K5qb3VvT/L/gnUZz0ori f7I8QaYdlmCYR306dY8j0EE6uiD/AHXH0FIdW1i0GJZdWhz977bpH2sg+gNq2MfXP1o9nLpr6C5Y dJfn/wAE7eiuI/4TDUbcbRZTX2f4/wCyr+2x/wAB8mT+dL/wnGo/9AGb/wAB7/8A+RKXJPsw9k3s 19521FcR/wAJrqEnynR5oc/8tPsd/Jt/4D9mXP5ikGu6rP8AJHc3smeCIPD1xA4/3WmbYD9QaPZz /lYezS+KSX9eR3GarXd9a2EBnu7iOGPONzsACT0H19q5H7N4mvRs2al5TcEX93BB+P8Ao6Fvw3L+ FWbPwNDHcfap7vy5yMMLCFLYe/zgGUk9yX5p8lviaX4/kCjTW7v/AF5ljUPGun2YRY4rh5ZDhFkh aHd/u7wC/wBEDH2qhs8VeIuN/wDZNkx5YqQ5HooyH9fmPlEHHykdel0/RNO0su1pbKsr/fmcl5ZP 952JZvxJrQovGOy/r0/4cftEvhVvxMbRfDWnaEHe2jaS6k/111NhpZT7nGOw4AA9q2aKKi7e5nKT k7t3FooooEFFFFABRRRQAUUUUAFFFFABRRRQAUUUUAFFFFABRRRQAUUUUAFFFFABRRRQAUUUUAFF FFABRRRQAUUUUAFFFFABRRRQBy97jw74kj1DcU03UiIboc7Yp/4JMdtw+QnjkJmunGD0qnqen2+q 6bcWF0paGdCjY6j3HoR1B9RWF4T1K5jEmhao+dQsj5Yfn98gAwwz7EdzwRkk7sVa8bmvxxv1R1VF FFSZBRRRQAUUUUAFFFFABRRRQAVz/iH/AJDfhP8A7Csn/pFdU+fxXp1tcyQPbawXjYoxj0W8dSQc cMsRDD3BINY9/r9nqviTwrBbw6ijrqUjk3Wm3FuuPsdyOGkRQTz0znr6UAdrRRRQAUUUUAFFFFAB RRRQAUUUUAFFFFABRRRQAUUUUAFFFFABRRRQAUUUUAFFFFABRRRQAUUUUAQ3EEV1by29xGksMqFJ I3XKsp4II7jFZ2meHNL0i4NxaQymYp5QknuJJmRM52qZGbavA+VcDgVr0UAY114W0m8sorOWGdIY ruS9j8m6lidZnZ2Zg6MG5Mj8Zxz7CrGmaNa6SZfs0t9J5uN32q/nucYz081229e2M/hWjRQAVz95 /wAlD0b/ALBV/wD+jbSugrn7z/koejf9gq//APRtpQB0FFFFABRRRQAUUUUAFFFFABRRRQAx2VFL MQABkk9q46yVvFniYahID/ZemsRboekkvBDH1wAG74ynQhxU/ii/mu7hNCsgpmnG19wypJzgMO6g KzMM8gBf+WgrotOsYdNsIrSDcUjH3nOWZiclmPckkkn1Jq4+6uY1+CPm/wAv+CW6KKKgyCiiigAo oooAKKKKACiiigAooooAKKKKACiiigAooooAKKKKACiiigAooooAKKKKACiiigAooooAKKKKACii igAooooAKKKKACiiigAooooAKKKKADA9KMD0oooAMD0oxRRQAUUUUAFFFFABRRRQAUUUUAFFFFAB RRRQAUUUUAFFFFABRRRQAUUUUAFFFFABRRRQAUUUUAFFFFABRRRQAUUUUAFFFFABRRRQAUUUUAFF FFABRRRQAn1rlfGGnzxpDr1go+2WJDuuP9ZGM5HHpluxO1pABlq6qkqoy5WOMnFpoqadfw6lYx3U DZRx0OMg9wfcGrmK4uxH/CJ+KZLF/l0q/Aa2btGwwNn4ZCj/AGfLAHysa7SiUeVlTilqtmLRRRUk BRRRQAUUUUAFFFFABXP+If8AkN+E/wDsKyf+kV1XQVz/AIh/5DfhP/sKyf8ApFdUAdBRRRQAUUUU AFFFFABRRRQAUUUUAFFFFABRRRQAUUUUAFFFFABRRRQAUUUUAFFFFABRRRQAUUUUAFFFFABRRRQA Vz95/wAlD0b/ALBV/wD+jbSugrn7z/koejf9gq//APRtpQB0FFFFABRRRQAUUUUAFFFFACVU1G/h 02xkup2wiDoOpPYD3NW+lcXf/wDFV+KodPQbtLsVL3LdpCcrt/HDL7qJQRypqox5mXCKer2RZ8H6 fPIk2vX4H2y+JdFx/q4jjA59cL2B2rGCMrXV0lLSlLmZMpOTuxaKKKQgooooAKKKKACiiigAoooo AKKKKACiiigAooooAKKKKACiiigAooooAKKKKACiiigAooooAKKKKACiiigAooooAKKKKACiiigA ooooAKKKKACiiigAooooAKKKKACiiigAooooAKKKKACiiigAooooAKKKKACiiigAooooAKKKKACi iigAooooAKKKKACiiigAooooAKKKKACiiigAooooAKKKKACiiigAooooAKKKKACiiigDJ8QaOmta TLaHasuC0LuMhXwRyO6kEqR3ViO9U/CmrvqGm/ZrvcuoWhMU6SHLZBI3E9845PTOccYJ6GuP8R20 uja5Z+IbRC0bSCG8jH8W7Chvxwq+5EWSApq4+8uU0g01yP8ApnYUVDbXEV3bxzwuHjdQysOhBqao M2mnZi0UUUAFFFFABRRRQAVz/iH/AJDfhP8A7Csn/pFdV0Fc/wCIf+Q34T/7Csn/AKRXVAHQUUUU AFFFFABRRRQAUUUUAFFFFABRRRQAUUUUAFFFFABRRRQAUUUUAFFFFABRRRQAUUUUAFFFFABRRRQA UUUUAFc/ef8AJQ9G/wCwVf8A/o20roK5+8/5KHo3/YKv/wD0baUAdBRRRQAUUUUAFFFFABRRTWYK pYnAFAGH4r1caTokzRlvtUw8qBUGWLNxkD1GfxOB1IqTw1pH9j6RHFIqi5kxJNt5AbAAQf7KqFQe yjvWJpSnxL4nm1WQE2Nk+23B6M2PlPpjBL+5ePPMddpirfuxt3NJ+6uT7/68haKKKgzCiiigAooo oAKKKKACiiigAooooAKKKKACiiigAooooAKKKKACiiigAooooAKKKKACiiigAooooAKKKKACiiig AooooAKKKKACiiigAooooAKKKKACiiigAooooAKKKKACiiigAooooAKKKKACiiigAooooAKKKKAC iiigAooooAKKKKACiiigAooooAKKKKACiiigAooooAKKKKACiiigAooooAKKKKACiiigAooooAKK KKACiiigAqvd2sN7aTWtzGJIZkKSIejKRgirFFAHHeGbqbS9RutEv5SziTMcjY+ckE7j/vgF/wDf 80fwjPYVy/jHT2ay/tS3JWW2QiXAyTHkNux3ZGVXHf5WA+9WzpOoLqenxXKgKxGHjznY3dffHr36 jg1c1f3l1NZe9Hn+80KKKKgyCiiigAooooAK5/xD/wAhvwn/ANhWT/0iuq6Cuf8AEP8AyG/Cf/YV k/8ASK6oA6CiiigAooooAKKKKACiiigAooooAKKKKACiiigAooooAKKKKACiiigAooooAKKKKACi iigAooooAKKKKACiiigArn7z/koejf8AYKv/AP0baV0Fc/ef8lD0b/sFX/8A6NtKAOgooooAKKKK ACiiigBK5bxjqEoittHswr3d+/lhD0K9SD7HBz32CQjla6WWRIYmlkYKiAszHoAK5XwjbSapPP4o vVPm3eVtI2H+qgBOD9WAB+mDwWaqglu+hrT91Ofb8zodK06PStNhsoiWEYJZ26yOTuZz7sxJPuav UlLUt3d2ZBRRRQAUUUUAFFFFABRRRQAUUUUAFFFFABRRRQAUUUUAFFFFABRRRQAUUUUAFFFFABRR RQAUUUUAFFFFABRRRQAUUUUAFFFFABRRRQAUUUUAFFFFABRRRQAUUUUAFFFFABRRRQAUUUUAFFFF ABRRRQAUUUUAFFFFABRRRQAUUUUAFFFFABRRRQAUUUUAFFFFABRRRQAUUUUAFFFFABRRRQAUUUUA FFFFABRRRQAUUUUAFFFFABRRRQAUUUUAFFFFACVxWnf8Uz4rXSm+SyuY8Wx/h2g/Ivtsz5f0MI61 2tZHiDRxrOnGNdq3MR8yB2zgN6HHO1hlTjnByMEAi4NfC9i4Ss9djX7UVgeEdYbWNBjklL/aoWMN wr43q69Q2OA2MEgcZNb9RZp2Ypx5W0LRRRQSFFFFABXP+If+Q34T/wCwrJ/6RXVdBXP+If8AkN+E /wDsKyf+kV1QB0FFFFABRRRQAUUUUAFFFFABRRRQAUUUUAFFFFABRRRQAUUUUAFFFFABRRRQAUUU UAFFFFABRRRQAUUUUAFFFFABXP3n/JQ9G/7BV/8A+jbSugrn7z/koejf9gq//wDRtpQB0FFFFABR RRQAlFFQ3NxFaW0lxO4SKNS7u3RQBkk0AtTl/GV1Neta+GrNys2pNtmdescP8R/FQ+M8HaR3FdVB BHbW8cEKBIo1CIo6KAMAVynhOCTVNU1DxPdRlWuGNtZow5jhU4b/AL6Zeeo+UEcGuvq5aWiaVHa0 V0/MWiiioMwooooAKKKKACiiigAooooAKKKKACiiigAooooAKKKKACiiigAooooAKKKKACiiigAo oooAKKKKACiiigAooooAKKKKACiiigAooooAKKKKACiiigAooooAKKKKACiiigAooooAKKKKACii igAooooAKKKKACiiigAooooAKKKKACiiigAooooAKKKKACiiigAooooAKKKKACiiigAooooAKKKK ACiiigAooooAKKKKACiiigAooooAKKKKACiiigAooooA42Nv+Ec8eyxN8un6ynmRnPCXCnDLjoN2 Qc9Sze1djWH4r0Zta0GWGEf6XEfOtm3bSJFB4z/DuBZc9gxNSeGdXGt+H7S+JPmOuJAV2kOODkHk c84q5apSNZe9FS6rT/I2aKKKgyCiiigArn/EP/Ib8J/9hWT/ANIrqugrn/EP/Ib8J/8AYVk/9Irq gDoKKKKACiiigAooooAKKKKACiiigAooooAKKKKACiiigAooooAKKKKACiiigAooooAKKKKACiii gBCQBknAqjp+s6XqxlGm6lZ3hiO2T7NOsmw+jbTxWd40+bwzJCSRFcXNrbzc/wDLKS4jST8NjNUW rW8Np4m8MTW0SRSPPLaNsUD9x9nkfb9A8cdAHQzTR28LTTSJHGgyzu2FUe5qKyvrTUrRLuwuoLq2 kzsmgkDo2Dg4YcHkEfhTrm2t7yBoLqCKeEkExyoGUkHI4PoQD+FYvgwBdCuABgDVdRAH/b7NQB0N c/ef8lD0b/sFX/8A6NtK6CuS13VtO0fx1olxqmoWtjA2m3yLLdTLEpbzbQ4yxHOAePagDraK5/8A 4Tvwf/0Neh/+DGH/AOKrat54rq3iuLeZJoJUDxyRsGV1IyCCOoI70ATUUUUAJXL+MpJry1tdCs5G S71KYR706xRKd0j+nAGOepYDvXUE1zXhuIand3niSQhzdsYrM/3LZTgYyP4yC/0K+lNGtP3ff7fm b9paw2VnDa20axwQxrHGijhVAwAPwqeiikZBRRRQAUUUUAFFFFABRRRQAUUUUAFFFFABRRRQAUUU UAFFFFABRRRQAUUUUAFFFFABRRRQAUUUUAFFFFABRRRQAUUUUAFFFFABRRRQAUUUUAFFFFABRRRQ AUUUUAFFFFABRRRQAUUUUAFFFFABRRRQAUUUUAFFFFABRRRQAUUUUAFFFFABRRRQAUUUUAFFFFAB RRRQAUUUUAFFFFABRRRQAUUUUAFFFFABRRRQAUUUUAFFFFABRRRQAUUUUAFFFFABRRRQAUUUUAIK 4+zibw746uLRV26drW65iwOEuV/1g4H8Q+bJPJyB0rsKy9e0w6rpbRRMsd3EwmtZT/yzlXlT0PHY +xIpp20NKcknZ7M1KWs/R9RGq6Xb3gjaJnUh4mzmNwdrKcgchgR+FX6RDTTsxaKKKBBXP+If+Q34 T/7Csn/pFdU+fxn4WtbiW3uPEujQzxOUkikv4lZGBwQQW4IPasfUPEuhaz4j8K2+l63p19OupSOY 7a6jlYL9juRuwpJxkjn3FAHa0UUUAFFFFABRRRQAUUUUAFFFFABRRRQAUUUUAFFFFABRRRQAUUUU AFFFFABRRRQAUUUUAFFFFAFW/sbfU7Ceyu4/Mt50KOuccH0I5B9xWdp/h1LO/W9udSv9RuIozFA1 4yHyVOM7QirknA+Zstx1rbooAzjpsq6ZLaQ6pfQySSySi6DJJLHvkL7V3qy7RnaAVOFAHbNU9B8O yaEZFXW9RvYHeWQw3SwbRJJIZHfMcStnczcZx83TpjdooAK5+8/5KHo3/YKv/wD0baV0Fc/ef8lD 0b/sFX//AKNtKAOgooooAKKKKAOf8VTSS6fFpFtIUutUk+zKykApHgmRhz2QN+JFbNtbxWlrFbQI I4YkCIg6KAMAVyukTPrvjfUdSDZs9NU2NvzkF8gyH2bK4/3dp712AqpK2hrP3YqP9f1YWiiipMgo oooAKKKKACiiigAooooAKKKKACiiigAooooAKKKKACiiigAooooAKKKKACiiigAooooAKKKKACii igAooooAKKKKACiiigAooooAKKKKACiiigAooooAKKKKACiiigAooooAKKKKACiiigAooooAKKKK ACiiigAooooAKKKKACiiigAooooAKKKKACiiigAooooAKKKKACiiigAooooAKKKKACiiigAooooA KKKKACiiigAooooAKKKKACiiigAooooAKKKKACiiigDl9Of+yfGeoaaw22+oKL234wPMGFlX6n5W x7sa6euX8b20y6TFq9nj7dpUouoixChlHDqTjhSpIPtW/YXkOo2Fve27boZ41kQnrtIyKpq6ua1N Up/1oWqKKKkyCuf8Q/8AIb8J/wDYVk/9Irqugrn/ABD/AMhvwn/2FZP/AEiuqAOgooooAKKKKACi iigAooooAKKKKACiiigAooooAKKKKACiiigAooooAKKKKACiiigAooooAKKKKACiiigAooooAK5+ 8/5KHo3/AGCr/wD9G2ldBXP3n/JQ9G/7BV//AOjbSgDoKKKKAErG8U6udD8OXl8hxMqbIeM/O3yr x3AJyfYGtmuL10nX/F1hpEZzb2T+dcEf38A4/BGAI9J1I6VUFrd7IunFOavsbnhjSV0Tw7Z2IB8x IwZGY5LOeWJJ5PP6YrYoAxgUVN7ilJybbFooooJCiiigAooooAKKKKACiiigAooooAKKKKACiiig AooooAKKKKACiiigAooooAKKKKACiiigAooooAKKKKACiiigAooooAKKKKACiiigAooooAKKKKAC iiigAooooAKKKKACiiigAooooAKKKKACiiigAooooAKKKKACiiigAooooAKKKKACiiigAooooAKK KKACiiigAooooAKKKKACiiigAooooAKKKKACiiigAooooAKKKKACiiigAooooAKKKKACiiigAooo oAKKKKAIp4Y54XhkUMkilWU9CD1Fcn4Ilksm1Hw7cMzS6fNujZjktG5LAk+u7ccDoGUV2FcV4iJ0 TxbYa8DiEwvFd88eUCCT+AO8n+7ERVw1vHv/AF/wDWHvRcfn93/AO2oooqDIK5/xD/yG/Cf/AGFZ P/SK6roK5/xD/wAhvwn/ANhWT/0iuqAOgooooAKKKKACiiigAooooAKKKKACiiigAooooAKKKKAC iiigAooooAKKKKACiiigAooooAKKKKACiiigAooooAK5+8/5KHo3/YKv/wD0baV0Fc/ef8lD0b/s FX//AKNtKAOgooooAhuZ47W2luJTiOJC7H0AGTXJ+BYJJY7vU7hf9IuSu89fmI3uB9GkKfSNfSrX ji+EGiiwCsxv2aBwp58vaWcD3ZVKA9mdTWxo9idO0qC2YqZFBaRlGAzsdzH8WJNW9IW7/wBf16Gs fdg330/r8DQoooqDIKKKKACiiigAooooAKKKKACiiigAooooAKKKKACiiigAooooAKKKKACiiigA ooooAKKKKACiiigAooooAKKKKACiiigAooooAKKKKACiiigAooooAKKKKACiiigAooooAKKKKACi iigAooooAKKKKACiiigAooooAKKKKACiiigAooooAKKKKACiiigAooooAKKKKACiiigAooooAKKK KACiiigAooooAKKKKACiiigAooooAKKKKACiiigAooooAKKKKACiiigAooooAKKKKAENZHiKxN5p bNHCJZoD5saY+/gEMn/AlLL/AMCrXpD3oKjLlaZgeDr0Xnh2FRKZvszNbiQnJdFOEc+7Jsb8a6A1 xXhcnSPEN7pJP7u4kkcAf8s5I9mB+MLw4H+wx712tXU1fN3HUioyaWwtc/4h/wCQ34T/AOwrJ/6R XVdBXP8AiH/kN+E/+wrJ/wCkV1UEHQUUUUAFFFFABRRRQAUUUUAFFFFABRRRQAUUUUAFFFFABRRR QAUUUUAFFFFABRRRQAUUUUAFFFFABRRRQAUUUUAFc/ef8lD0b/sFX/8A6NtK6CufvP8Akoejf9gq /wD/AEbaUAdBRRRQBxWt41P4g6Tp/WO0h8+Vf95tyn6hoF/77rtBXJeHYft3irX9ZcZQT/Y7fK4K hAqyc9wXX9K63mrm9Uu39fma1dEo9kLRRRUGQUUUUAFFFFABRRRQAUUUUAFFFFABRRRQAUUUUAFF FFABRRRQAUUUUAFFFFABRRRQAUUUUAFFFFABRRRQAUUUUAFFFFABRRRQAUUUUAFFFFABRRRQAUUU UAFFFFABRRRQAUUUUAFFFFABRRRQAUUUUAFFFFABRRRQAUUUUAFFFFABRRRQAUUUUAFFFFABRRRQ AUUUUAFFFFABRRRQAUUUUAFFFFABRRRQAUUUUAFFFFABRRRQAUUUUAFFFFABRRRQAUUUUAFFFFAB RRRQAUUUUAFFFFAHE+Jf+JT4q0bU84hmukif3dg0Y/MSbj/1yFdrXMeP7OS68H3rwMqXFuBPG7DI Qr1P5Zrd069i1LTLW+hOYrmFJUPswBH86t6wXl/X+ZrPWMZfL7v+AW65/wAQ/wDIb8J/9hWT/wBI rqugrn/EP/Ib8J/9hWT/ANIrqoMjoKKKKACiiigAooooAKKKKACiiigAooooAKKKKACiiigAoooo AKKKKACiiigAooooAKKKKACiiigAooooAKKKKACufvP+Sh6N/wBgq/8A/RtpXQVz95/yUPRv+wVf /wDo20oA3+lVdRvI9O0y6vZv9XbwvK2PRQSf5VarmvHE8Q0BbGSYxHUbqCyUjqfMkUEf987qEtS6 ceaSTLPhC1ktPCmnRyljM0QllLdd7/O36sa3KaqhVCjgAdBTqBTlzScu4tFFFBIUUUUAFFFFABRR RQAUUUUAFFFFABRRRQAUUUUAFFFFABRRRQAUUUUAFFFFABRRRQAUUUUAFFFFABRRRQAUUUUAFFFF ABRRRQAUUUUAFFFFABRRRQAUUUUAFFFFABRRRQAUUUUAFFFFABRRRQAUUUUAFFFFABRRRQAUUUUA FFFFABRRRQAUUUUAFFFFABRRRQAUUUUAFFFFABRRRQAUUUUAFFFFABRRRQAUUUUAFFFFABRRRQAU UUUAFFFFABRRRQAUUUUAFFFFABRRRQAUUUUAFFFFAEU8KTwSQyKGR1Ksp7g9q53wM0kOhSaZMzNN ptzLaMzDGQG3If8AvhlrpqwdPPleM9bgX7j21rcn/eYyof0iWqirplKXuuJv1z/iH/kN+E/+wrJ/ 6RXVdBXP+If+Q34T/wCwrJ/6RXVSSdBRRRQAUUUUAFFFFABRRRQAUUUUAFFFFABRRRQAUUUUAFFF FABRRRQAUUUUAFFFFABRRRQAUUUUAFFFFABRWD4unmh8OyLBK8L3Nxb2nmRnDIs06RMwPYgOcGs5 9H0/w14i0JtHtIrNL6eS0uY4BtWUeRJKrsO7AxY3Hn5jzzQB19c/ef8AJQ9G/wCwVf8A/o20roK5 +8/5KHo3/YKv/wD0baUAb9cV4smjm8b+D9JljZlu5p5924bVMCrIvy45O4DnIwM8HPHa1y+q2UV1 8RfDc7j5rSyvpU+pMCfyc1pStza9n+QKTWx1NFFFZgFFFFABRRRQAUUUUAFFFFABRRRQAUUUUAFZ 2jan/a1jJc+T5Wy7ubbbu3Z8qZ4t3Qddmcds45rRrn/Bv/IEuf8AsK6l/wCls1AHQUUUUAFFFFAB RRRQAUUUUAFFFFABRRRQAUUUUAZ2o6n9gvtJtvJ8z+0Ltrbdux5eIZZd3Tn/AFWMcfez2rRrn/EP /Ib8J/8AYVk/9IrqugoAKKKKACiiigAooooAKKKKACiiigAooooAKKKKAM7TtT+332rW3k+X/Z92 ttu3Z8zMMUu7px/rcY5+7nvWjXP+Hv8AkN+LP+wrH/6RWtdBQAUUUUAFFFFABRRRQAUUUUAFFFFA BRRRQAVnazqf9k2Mdz5Pm77u2ttu7bjzZki3dD035x3xjitGuf8AGX/IEtv+wrpv/pbDQB0FFFFA BRRRQAUUUUAFFFFABRRRQAUUUUAFFFFABWdDqfm+IbzSvJx9mtLe583d97zXmXbjHGPJ6553e3Oj XP2f/JQ9Z/7BVh/6Nu6AOgooooAKKKKACiiigAooooAKKKKACiiigAooooAztd1P+xfD2p6r5Pnf YbSW58rdt37ELbc4OM464rRrn/Hf/JPPEv8A2Crr/wBFNXQUAFFFFABRRRQAUUUUAFFFFABRRRQA UUUUAFFFFAGdNqfleIbPSvJz9ptLi583d93ynhXbjHOfO6542+/GjXP3n/JQ9G/7BV//AOjbSugo AKwJD9n8eW2z/l902XzP+2Mkez/0e9b1YOsfufEvh24UfPLPNaH/AHGheU/+PQJV092vJ/kJm/XP +If+Q34T/wCwrJ/6RXVdBXP+If8AkN+E/wDsKyf+kV1UDOgooooAKKKKACiiigAooooAKKKKACii igAooooAKKKKACiiigAooooAKKKKACiiigAooooAKKKKACiiigCjqumxaxpc9hOzoky4DxnDIwOV ZfcEAj6VnWWiagdUt7/WNUivntVZbZIbXyFUsMF2y7bmxxxgcnjmt+igArO1PQtH1vyv7V0mxv8A yc+X9qt0l2ZxnbuBxnA/IVo0UAc//wAIJ4P/AOhU0P8A8F0P/wATR/wgvhDp/wAIroeP+wfF/wDE 1rahew6bpt1f3BIgtoXmkIHRVBY/oK56PVvEFkdPvNXjsBZXsscLwQI4ltGkOE3OWIk+Yqpwq9c8 0AW/+EE8H/8AQqaH/wCC6H/4mj/hBPB//QqaH/4Lof8A4mugooA5/wD4QTwf/wBCpof/AILof/ia P+EE8H/9Cpof/guh/wDia6CigDn/APhBPB//AEKmh/8Aguh/+Jo/4QTwf/0Kmh/+C6H/AOJroKKA Of8A+EE8H/8AQqaH/wCC6H/4mj/hBPB//QqaH/4Lof8A4mugooA5/wD4QTwf/wBCpof/AILof/ia P+EE8H/9Cpof/guh/wDia6CigDn/APhBPB//AEKmh/8Aguh/+Jo/4QTwf/0Kmh/+C6H/AOJroKKA Of8A+EE8H/8AQqaH/wCC6H/4mj/hBPB//QqaH/4Lof8A4mtbUL2HTdNur+4JEFtC80hHZVBY/oK5 6PVvEFkdPvNXjsBZXsscLwQI4ltGkOE3OWIk+Yqpwq9c80AW/wDhBPB//QqaH/4Lof8A4mj/AIQT wf8A9Cpof/guh/8Aiava3qf9j6PPerCZpFKxxRbtvmSOwRFz2yzKM+9Z1tqGtWGsWVlrTWE0d/vW GWziePy5VUvsYMzbgVDENx937vNAD/8AhBPB/wD0Kmh/+C6H/wCJo/4QTwf/ANCpof8A4Lof/iay NG8S32r6xNbjxH4eieK/uIDpn2ZmuvLindOv2j7xVM52Y56EV29AHP8A/CCeD/8AoVND/wDBdD/8 TR/wgng//oVND/8ABdD/APE10FFAHP8A/CCeD/8AoVND/wDBdD/8TR/wgng//oVND/8ABdD/APE1 0FFAHP8A/CCeD/8AoVND/wDBdD/8TR/wgng//oVND/8ABdD/APE10FFAHP8A/CCeD/8AoVND/wDB dD/8TR/wgng//oVND/8ABdD/APE10FFAHP8A/CCeD/8AoVND/wDBdD/8TR/wgng//oVND/8ABdD/ APE10FFAHP8A/CCeD/8AoVND/wDBdD/8TR/wgng//oVND/8ABdD/APE10FcZ/wAJJrX9kf8ACTeX Y/2H/rvs/lv5/wBmz/rfM3bc7fn2benG6gDT/wCEE8H/APQqaH/4Lof/AImj/hBPB/8A0Kmh/wDg uh/+JroK53RdR1mXxDqWm6uLAeRa21zELRX+XzHmUqzMfmx5Q52r16UAO/4QTwf/ANCpof8A4Lof /iaP+EE8H/8AQqaH/wCC6H/4mugooA5//hBPB/8A0Kmh/wDguh/+Jo/4QTwf/wBCpof/AILof/ia 6CigDn/+EE8H/wDQqaH/AOC6H/4mj/hBPB//AEKmh/8Aguh/+JroKKAOf/4QTwf/ANCpof8A4Lof /iaP+EE8H/8AQqaH/wCC6H/4mugooA5//hBPB/8A0Kmh/wDguh/+Jo/4QTwf/wBCpof/AILof/ia 6CigDn/+EE8H/wDQqaH/AOC6H/4mj/hBPB//AEKmh/8Aguh/+JroKKAOf/4QTwf/ANCpof8A4Lof /iaP+EE8H/8AQqaH/wCC6H/4msz/AISTWv7I/wCEm8ux/sP/AF32fy38/wCzZ/1vmbtudvz7NvTj dXZ0Ac//AMIJ4P8A+hU0P/wXQ/8AxNH/AAgng/8A6FTQ/wDwXQ//ABNN0XUdZl8Q6lpuriwHkWtt cxC0V/l8x5lKszH5seUOdq9elZU3iW+m8U6ppMXiPw7pz21ykFva3ls0k8oaGKTd/wAfCZ+aQqML /DQBr/8ACCeD/wDoVND/APBdD/8AE0f8IJ4P/wChU0P/AMF0P/xNdBRQBz//AAgng/8A6FTQ/wDw XQ//ABNH/CCeD/8AoVND/wDBdD/8TXQUUAc//wAIJ4P/AOhU0P8A8F0P/wATR/wgng//AKFTQ/8A wXQ//E10FFAHP/8ACCeD/wDoVND/APBdD/8AE0f8IJ4P/wChU0P/AMF0P/xNdBRQBz//AAgng/8A 6FTQ/wDwXQ//ABNH/CCeD/8AoVND/wDBdD/8TXQUUAc//wAIJ4P/AOhU0P8A8F0P/wATR/wgng// AKFTQ/8AwXQ//E10FFAHP/8ACCeD/wDoVND/APBdD/8AE0f8IJ4P/wChU0P/AMF0P/xNVZNW8QXp 1C80iOwNlZTSQpBOjmW7aM4fa4YCP5gyjKt0zxXQafew6lptrf25JguYkmjJ7qwDD9DQBk/8IJ4P /wChU0P/AMF0P/xNH/CCeD/+hU0P/wAF0P8A8TVIap4m02OyvNaTSxDc3MNu9pbK/mQGVwi/vC2J MFhkbV4yc8V1tAHP/wDCCeD/APoVND/8F0P/AMTR/wAIJ4P/AOhU0P8A8F0P/wATXQUUAc//AMIJ 4P8A+hU0P/wXQ/8AxNH/AAgng/8A6FTQ/wDwXQ//ABNdBRQBz/8Awgng/wD6FTQ//BdD/wDE0f8A CCeD/wDoVND/APBdD/8AE10FFAHP/wDCCeD/APoVND/8F0P/AMTR/wAIJ4P/AOhU0P8A8F0P/wAT XQUUAc//AMIJ4P8A+hU0P/wXQ/8AxNH/AAgng/8A6FTQ/wDwXQ//ABNdBRQBz/8Awgng/wD6FTQ/ /BdD/wDE0f8ACCeD/wDoVND/APBdD/8AE10FcrJq3iC9OoXmkR2BsrKaSFIJ0cy3bRnD7XDAR/MG UZVumeKALX/CCeD/APoVND/8F0P/AMTR/wAIJ4P/AOhU0P8A8F0P/wATWtp97DqWm2t/bkmC5iSa MnurAMP0Nc4NU8TabHZXmtJpYhubmG3e0tlfzIDK4Rf3hbEmCwyNq8ZOeKALv/CCeD/+hU0P/wAF 0P8A8TR/wgng/wD6FTQ//BdD/wDE1ma34lubPxZJpK69oWkRLZwTxnUoS7zvI8ykL++j4AjXsfvV 1tv5v2WLz5I5Zti75Ik2KzY5KqScD2yfqaAMX/hBPB//AEKmh/8Aguh/+Jo/4QTwf/0Kmh/+C6H/ AOJroKKAOf8A+EE8H/8AQqaH/wCC6H/4mj/hBPB//QqaH/4Lof8A4mugooA5/wD4QTwf/wBCpof/ AILof/iaP+EE8H/9Cpof/guh/wDia6CigDn/APhBPB//AEKmh/8Aguh/+Jo/4QTwf/0Kmh/+C6H/ AOJroKKAOf8A+EE8H/8AQqaH/wCC6H/4mj/hBPB//QqaH/4Lof8A4mugooA5/wD4QTwf/wBCpof/ AILof/iaP+EE8H/9Cpof/guh/wDia6CucudQ1q/1i9stFawhjsNizS3kTyeZKyh9ihWXaArKS3P3 vu8UAP8A+EE8H/8AQqaH/wCC6H/4mj/hBPB//QqaH/4Lof8A4mr+ian/AGxpEF6YfJkYsksW7Ply IxR1z3wysM+1ZuozeJLVbq9F5odvZw7mSK4ikJZBnBaXeoTI/wBhse9AD/8AhBPB/wD0Kmh/+C6H /wCJo/4QTwf/ANCpof8A4Lof/ia1NKvv7U0ex1DyXg+1W8c3lP8AeTcobafcZq5QBz//AAgng/8A 6FTQ/wDwXQ//ABNH/CCeD/8AoVND/wDBdD/8TXQUUAc//wAIJ4P/AOhU0P8A8F0P/wATR/wgng// AKFTQ/8AwXQ//E10FFAHP/8ACCeD/wDoVND/APBdD/8AE0f8IJ4P/wChU0P/AMF0P/xNdBRQBz// AAgng/8A6FTQ/wDwXQ//ABNH/CCeD/8AoVND/wDBdD/8TXQUUAc//wAIJ4P/AOhU0P8A8F0P/wAT R/wgng//AKFTQ/8AwXQ//E10FFAHP/8ACCeD/wDoVND/APBdD/8AE0f8IJ4P/wChU0P/AMF0P/xN MudQ1q/1i9stFawhjsNizS3kTyeZKyh9ihWXaArKS3P3vu8VpaJqf9saRBemHyZGLJLFuz5ciMUd c98MrDPtQBQ/4QTwf/0Kmh/+C6H/AOJo/wCEE8H/APQqaH/4Lof/AImmajN4ktVur0Xmh29nDuZI riKQlkGcFpd6hMj/AGGx71l6p4wnRvDzJqOlaHDqmny3jyavEX2svk7Yh+9j+b962eT93pQBr/8A CCeD/wDoVND/APBdD/8AE0f8IL4RH/Mq6Hz/ANQ+L/4mtPTHnk06B7m8tbuVgWM9rEY4nBPBVS79 sfxH+lXaAOf/AOEE8H/9Cpof/guh/wDiansfCfhzTLyO8sPD+lWl1HnZNBZRxuuQQcMBkcEj8a2a KACiiigAooooAKKKKACiiigAooooAKKKKACiiigAooooAKKKKACiiigAooooAKKKKACiiigAoooo AKKKKACiiigAooooAztf046x4d1PTFcIby0ltwx7b0K5/WuduNQuvEcOm6YdK1C2uVu7e4vjPbMk UHkyLKQshG2TLIFGwt1zxXZ0UAFFFFABRRRQAUUUUAFFFFABRRRQAUUUUAZ2v6cdY8O6npiuEN5a S24Y9t6Fc/rXO3GoXXiOHTdMOlahbXK3dvcXxntmSKDyZFlIWQjbJlkCjYW654rs6KAOd8QJc6vp GoW9paT/AGmxu4JYllXYty0TRXA2Meqn7mePmDDtVYXj+Itf0eS3sL+3ttOle6mkvLV4PnMTxLGo cDcf3rEkZX5evNdXRQBwuu3UOt6Jc6Rp2g6jFqU7ExGXT2iS2mLZ84ykbMq3zZViTjjOa7qiigAo oooAKKKKACiiigAooooAKKKKACvPcXn/AAg3/CE/2Zf/AG/7L/Zfm/Zm8jyseX53m42Y2fNtzuzx jNehUUAVkut+oTWf2edfKijl85kxG+4uNqt3YbMkdgy+tcnYa9bS+Or64Wy1lYLuys7aKWTR7tFM iy3BYEtGNoAkT5jgc9eDXa0UAFFFFABRRRQAUUUUAFFFFABRRRQAUUUUAee4vP8AhBv+EJ/sy/8A t/2X+y/N+zN5HlY8vzvNxsxs+bbndnjGa7lLrfqE1n9nnXyoo5fOZMRvuLjard2GzJHYMvrVmigD irDXraXx1fXC2WsrBd2VnbRSyaPdopkWW4LAloxtAEifMcDnrwatavqenSRajp8nhvUbq4n3I0I0 5ilycbQTLjy8EAcswIGOmK6uigDP0S2urLQNOtb6bzruC1ijnlznfIqgM34nNaFFFABRRRQAUUUU AFFFFABRRRQAUUUUAcZb6hdeHIdT0z+ytQublru4uLEwWzPFP50jSgNIBtjwzlTvK9M81taHAdE0 7RtAaKaQwaeENwifuh5SxptZuzNuyB3Ct6Vs0UAcPpeuQaxq0F9qllrMU3mbbKzl0e6CW2fl3u/l 7fMIPLZ2qDgH7zN3FFFABRRRQAUUUUAFFFFABRRRQAUUUUAFcZb6hdeHIdT0z+ytQublru4uLEwW zPFP50jSgNIBtjwzlTvK9M812dFAGNocB0TTtG0BoppDBp4Q3CJ+6HlLGm1m7M27IHcK3pWBpeuQ axq0F9qllrMU3mbbKzl0e6CW2fl3u/l7fMIPLZ2qDgH7zN3FFAHP6lq9hZ388d1o+oTTNGIxJDpr zrOnULvRSAAWPDlec/WpPCVjc6d4atba6iMDq0jLAWDeRG0jMkWRx8iFV44+WtyigAooooAKKKKA CiiigAooooAKKKKACuUN4/hzX9Ye4sb+e21GWO6hks7V5/nESRNGwQHaf3SnJwvzdeK6uigDntAS 50nSNPt7u0n+0313PLKsQDrbNK0twd7Doo+5n+8VHesjxNH4d1mW4h1Pwne32oorQwyDTGZyATt2 XAXagycjLjGecV3FFAFDRoby30LT4dRl82+jto0uJM53yBQGP4nNX6KKACiiigAooooAKKKKACii igAooooA5Q3j+HNf1h7ixv57bUZY7qGSztXn+cRJE0bBAdp/dKcnC/N14q1oCXOk6Rp9vd2k/wBp vrueWVYgHW2aVpbg72HRR9zP94qO9dDRQBw/iaPw7rMtxDqfhO9vtRRWhhkGmMzkAnbsuAu1Bk5G XGM84rRjv/7GsdKi1yxvrvUIrJEkvLaxe5BkKgSDMasy5KgnIAPHPp09FAHO+ErSa2tdQla0eytr q+e4tbRwFaGMqo5Ufd3Orvjtv55roqKKACiiigAooooAKKKKACiiigAooooAKKKKACiiigAooooA KKKKACiiigAooooAKKKKACiiigAooooAKKKKACiiigAooooAKKKKACiiigAooooAKKKKACiiigAo oooAKKKKACiiigAooooAKKKKACiiigAooooAKKKKACiiigAooooAKKKKACiiigAooooAKKKKACii igAooooAKKKKACiiigAooooAKKKKACiiigAooooAKpalq2naPbLcanqFrYwM/lrJdTLEpbBOAWIG cA8e1Xa5bxfcS2moeF5obKe9kXVWxBAyB3/0O5HG9lXjryR0oA3NO1fTdXhabTNRtL2JThntp1lA P1Umrteeag2tS+KbC+ttOOhPfA6b5s5illckGYuyozL8qwuq5Y8ynj11Xudd0fULnTUvW1iabTZ7 uyN1HHG4miKLsYxqqlWMiY4BGG5PYA66obeeK6t4ri3mSaCVA8ckbBldSMggjqCO9cn4f1J7nVII 5vEeoPcurNJp2paelsW+Xny/kVuDg/ecY/OsXSLW81W48Dzx6xdae8vhiRyLKC3VVObQnarRMFB3 DgDA2Lt287gD0YTxNcPbrNGZ0VXeMMCyqxYKSOwJVsH/AGT6VNXKajq76Trnie8MSSJYaHb3YUIo ZyGuyQWxuI+QYB4GTjqcxy/29ocen6hea49+s11Bb3Vq1vEkY811jzEVUONrOp+Zm4B+tAHX0VxW mJ4k1uyvrtfEDWjQ397Baxx20TI6x3EiJ5u5ST90L8pU4GcknNdJoOpHWfD2maoUEZvbSK42D+He gbH60AaNFFFABRRRQAUUUUAFFFFABRRRQAUUUUAFFFFABRRRQAUUUUAFFFFABRRRQAUUUUAFFFFA BRRRQAUUUUAFFFFABRRRQAUUUUAFFFFABRRRQAUUUUAFFFFABRRRQAUUUUAFFFFABRRRQAUUUUAF FFFABRRRQAUUUUAFFFFABRRRQAUUUUAFFFFABRRRQAUUUUAFFFFABRRRQAUUUUAFFFFABRRRQAUU UUAFFFFABRRRQAUUUUAFFFFABRRRQAUUUUAFFFFABRRRQAUUUUAFFFFABRRRQAUUUUAFFFFABRRR QAUUUUAFFFFABRRRQAUUUUAFFFFABRRRQAUUUUAFFFFABRRRQAUUUUAFFFFABRRRQAUUUUAFFFFA BVK802G9u9PuJWkD2FwbiIKRgsYniw3HTbI34gVdooAz9X0qDWLMW87yxMkiyxTQvtkidejKfX9C CQcg1Ts/DcdtLdT3Go6hfXdxCbc3M8irJHH/AHU8tVCcnOQM5A54FblFAGFaeHPKvre7vNW1HUWt WZrZLpo9sTFSpYbEUsdrMMtnqai/4ROCGw0e2stSv7KXSrX7HBcwmJpDFtQFWDoynPlofu9Rxiui ooAzn0e0k1K9vZVaRr21jtJonwUMaGUjjHfzmz+FZtn4Rit5rQz6rqd5bWbB7a1uZEMcbAYU5CBm x23s3r1ro6KAKWmabDpVq9vA0jI9xPcEuQTullaVhwOm5zj2x9aNJ06HRtHsdLt2kaCzt47eNpCC xVFCgnAAzgVdooAKKKKACiiigAooooAKKKKACiiigAooooAKKKKACiiigAooooAKKKKACiiigAoo ooAKKKKACiiigAooooAKKKKACiiigAooooAKKKKACiiigAooooAKKKKACiiigAooooAKKKKACiii gAooooAKKKKACiiigAooooAKKKKACiiigAooooAKKKKACiiigAooooAKKKKACiiigAooooAKKKKA CiiigAooooAKKKKACiiigAooooAKKKKACiiigAooooAKKKKACiiigAooooAKKKKACiiigAooooAK KKKACiiigAooooAKKKKACiiigAooooAKKKKACiiigAooooAKKKKACiiigAooooAKKKKACiiigAoo ooAKKKKACiiigAooooAKKKKACiiigAooooAKKKKACiiigAooooAKKKKACiiigAooooAKKKKACiii gAooooAKKKKACiiigAooooAKKKKACiiigAooooAKKKKACiiigAooooAKKKKACiiigAooooAKKKKA CiiigAooooAKKKKACiiigAooooAKKKKACiiigAooooAKKKKACiiigAooooAKKKKACiiigAooooAK KKKACiiigAooooAKKKKACiiigAooooAKKKKACiiigAooooAKKKKACiiigAooooAKKKKACiiigAoo ooAKKKKACiiigAooooAKKKKACiiigAooooAKKKKACiiigAooooAKKKKACiiigAooooAKKKKACiii gAooooAKKKKACiiigAooooAKKKKACiiigAooooAKKKKACiiigAooooAKKKKACiiigAooooAKKKKA CiiigAooooAKKKKACiiigAooooAKKKKACiiigAooooAKKKKACiiigAooooAKKKKACiiigAooooAK KKKACiiigAooooAKKKKACiiigAooooAKKKKACiiigAooooAKKKKACiiigAooooAKKKKACiiigAoo ooAKKKKACiiigAooooAKKKKACiiigAooooAKKKKACiiigAooooAKKKKACiiigAooooAKKKKACiii gAooooAKKKKACiiigAooooAKKKKACiiigAooooAKKKKACiiigAooooAKKKKACiiigAooooAKKKKA CiiigAooooAKKKKACiiigAooooAKKKKACiiigAooooAKKKKACiiigAooooAKKKKACiiigAooooAK KKKACiiigAooooAKKKKACiiigAooooAKKKKACiiigAooooAKKKKACiiigAooooAKKKKACiiigAoo ooAKKKKACiiigAooooAKKKKACiiigAooooAKKKKACiiigAooooAKKKKACiiigAooooAKKKKACiii gAooooAKKKKACiiigAooooAKKKKAP//Z "
       height="900"
       width="1200" />
    <text
       xml:space="preserve"
       style="font-size:40px;font-style:normal;font-variant:normal;font-weight:normal;font-stretch:normal;line-height:125%;letter-spacing:0px;word-spacing:0px;fill:#000000;fill-opacity:1;stroke:none;font-family:Nimbus Roman No9 L;-inkscape-font-specification:Nimbus Roman No9 L"
       x="22.385233"
       y="478.54965"
       id="text4058-6"
       sodipodi:linespacing="125%"><tspan
         sodipodi:role="line"
         id="tspan4060-4"
         x="22.385233"
         y="478.54965"><tspan
           style="font-style:italic;-inkscape-font-specification:Nimbus Roman No9 L Italic"
           id="tspan4092-2">c</tspan><tspan
           style="font-size:65.00091553%;font-style:normal;font-variant:normal;font-weight:normal;font-stretch:normal;baseline-shift:sub;font-family:Nimbus Roman No9 L;-inkscape-font-specification:Nimbus Roman No9 L"
           id="tspan4062-0">0</tspan></tspan></text>
    <text
       xml:space="preserve"
       style="font-size:40px;font-style:normal;font-variant:normal;font-weight:normal;font-stretch:normal;line-height:125%;letter-spacing:0px;word-spacing:0px;fill:#000000;fill-opacity:1;stroke:none;font-family:Nimbus Roman No9 L;-inkscape-font-specification:Nimbus Roman No9 L"
       x="334.88263"
       y="532.73169"
       id="text4058-6-0"
       sodipodi:linespacing="125%"><tspan
         sodipodi:role="line"
         id="tspan4060-4-1"
         x="334.88263"
         y="532.73169"><tspan
           style="font-style:italic;-inkscape-font-specification:Nimbus Roman No9 L Italic"
           id="tspan4092-2-0">c</tspan><tspan
           style="font-size:65.00091553%;font-style:normal;font-variant:normal;font-weight:normal;font-stretch:normal;baseline-shift:sub;font-family:Nimbus Roman No9 L;-inkscape-font-specification:Nimbus Roman No9 L"
           id="tspan4062-0-6">1</tspan></tspan></text>
    <text
       xml:space="preserve"
       style="font-size:40px;font-style:normal;font-variant:normal;font-weight:normal;font-stretch:normal;line-height:125%;letter-spacing:0px;word-spacing:0px;fill:#000000;fill-opacity:1;stroke:none;font-family:Nimbus Roman No9 L;-inkscape-font-specification:Nimbus Roman No9 L"
       x="721.73395"
       y="494.29034"
       id="text4058-6-5"
       sodipodi:linespacing="125%"><tspan
         sodipodi:role="line"
         id="tspan4060-4-8"
         x="721.73395"
         y="494.29034"><tspan
           style="font-style:italic;-inkscape-font-specification:Nimbus Roman No9 L Italic"
           id="tspan4092-2-08">c</tspan><tspan
           style="font-size:65.00091553%;font-style:normal;font-variant:normal;font-weight:normal;font-stretch:normal;baseline-shift:sub;font-family:Nimbus Roman No9 L;-inkscape-font-specification:Nimbus Roman No9 L"
           id="tspan4062-0-2">2</tspan></tspan></text>
    <path
       style="fill:none;stroke:#000000;stroke-width:2;stroke-linecap:butt;stroke-linejoin:miter;stroke-miterlimit:4;stroke-opacity:1;stroke-dasharray:none;marker-mid:none;marker-end:url(#Arrow1Mend)"
       d="m 47.160225,504.85954 c 4.22139,22.0166 31.77705,50.91424 31.77705,50.91424"
       id="path4202"
       inkscape:connector-curvature="0"
       sodipodi:nodetypes="cc" />
    <path
       style="fill:none;stroke:#000000;stroke-width:2;stroke-linecap:butt;stroke-linejoin:miter;stroke-miterlimit:4;stroke-opacity:1;stroke-dasharray:none;marker-mid:none;marker-end:url(#Arrow1Mend)"
       d="m 331.61478,539.60242 c -17.87271,13.53207 -31.58518,51.03349 -31.58518,51.03349"
       id="path4202-3"
       inkscape:connector-curvature="0"
       sodipodi:nodetypes="cc" />
    <path
       style="fill:none;stroke:#000000;stroke-width:2;stroke-linecap:butt;stroke-linejoin:miter;stroke-miterlimit:4;stroke-opacity:1;stroke-dasharray:none;marker-end:url(#Arrow1Mend-4)"
       d="m 736.61479,512.1974 c 4.28571,22.14285 -4.28572,55 -4.28572,55"
       id="path5282"
       inkscape:connector-curvature="0"
       sodipodi:nodetypes="cc" />
    <text
       xml:space="preserve"
       style="font-size:40px;font-style:normal;font-variant:normal;font-weight:normal;font-stretch:normal;line-height:125%;letter-spacing:0px;word-spacing:0px;fill:#000000;fill-opacity:1;stroke:none;font-family:Nimbus Roman No9 L;-inkscape-font-specification:Nimbus Roman No9 L"
       x="-61.658131"
       y="931.28589"
       id="text4058"
       sodipodi:linespacing="125%"><tspan
         sodipodi:role="line"
         id="tspan4060"
         x="-61.658131"
         y="931.28589"><tspan
           style="font-style:italic;-inkscape-font-specification:Nimbus Roman No9 L Italic"
           id="tspan4092">x</tspan><tspan
           style="font-size:65.00091553%;font-style:normal;font-variant:normal;font-weight:normal;font-stretch:normal;baseline-shift:sub;font-family:Nimbus Roman No9 L;-inkscape-font-specification:Nimbus Roman No9 L"
           id="tspan4062">0</tspan></tspan></text>
    <path
       style="fill:none;stroke:#000000;stroke-width:3;stroke-linecap:butt;stroke-linejoin:miter;stroke-miterlimit:4;stroke-opacity:1;stroke-dasharray:3, 3;stroke-dashoffset:0;marker-start:none"
       d="m -50.714285,896.64789 1.42857,-108.57143"
       id="path3820"
       inkscape:connector-curvature="0"
       sodipodi:nodetypes="cc" />
    <path
       style="fill:none;stroke:#000000;stroke-width:3;stroke-linecap:butt;stroke-linejoin:miter;stroke-miterlimit:4;stroke-opacity:1;stroke-dasharray:3, 3;stroke-dashoffset:0"
       d="m 160.35714,445.21932 -0.71429,449.99996"
       id="path3840"
       inkscape:connector-curvature="0"
       sodipodi:nodetypes="cc" />
    <text
       xml:space="preserve"
       style="font-size:40px;font-style:normal;font-variant:normal;font-weight:normal;font-stretch:normal;line-height:125%;letter-spacing:0px;word-spacing:0px;fill:#000000;fill-opacity:1;stroke:none;font-family:Nimbus Roman No9 L;-inkscape-font-specification:Nimbus Roman No9 L"
       x="148.58694"
       y="931.34045"
       id="text4058-8"
       sodipodi:linespacing="125%"><tspan
         sodipodi:role="line"
         id="tspan4060-3"
         x="148.58694"
         y="931.34045"><tspan
           style="font-style:italic;-inkscape-font-specification:Nimbus Roman No9 L Italic"
           id="tspan4092-7">x</tspan><tspan
           style="font-size:65.00091553%;font-style:normal;font-variant:normal;font-weight:normal;font-stretch:normal;baseline-shift:sub;font-family:Nimbus Roman No9 L;-inkscape-font-specification:Nimbus Roman No9 L"
           id="tspan4062-5">1</tspan></tspan></text>
    <text
       xml:space="preserve"
       style="font-size:40px;font-style:normal;font-variant:normal;font-weight:normal;font-stretch:normal;line-height:125%;letter-spacing:0px;word-spacing:0px;fill:#000000;fill-opacity:1;stroke:none;font-family:Nimbus Roman No9 L;-inkscape-font-specification:Nimbus Roman No9 L"
       x="623.58691"
       y="933.48328"
       id="text4058-4"
       sodipodi:linespacing="125%"><tspan
         sodipodi:role="line"
         id="tspan4060-9"
         x="623.58691"
         y="933.48328"><tspan
           style="font-style:italic;-inkscape-font-specification:Nimbus Roman No9 L Italic"
           id="tspan4092-4">x</tspan><tspan
           style="font-size:65.00091553%;font-style:normal;font-variant:normal;font-weight:normal;font-stretch:normal;baseline-shift:sub;font-family:Nimbus Roman No9 L;-inkscape-font-specification:Nimbus Roman No9 L"
           id="tspan4062-4">2</tspan></tspan></text>
    <path
       style="fill:none;stroke:#000000;stroke-width:3;stroke-linecap:butt;stroke-linejoin:miter;stroke-miterlimit:4;stroke-opacity:1;stroke-dasharray:3, 3;stroke-dashoffset:0"
       d="m 637.5,444.50506 -0.71429,449.99996"
       id="path3840-5"
       inkscape:connector-curvature="0"
       sodipodi:nodetypes="cc" />
    <text
       xml:space="preserve"
       style="font-size:40px;font-style:normal;font-variant:normal;font-weight:normal;font-stretch:normal;line-height:125%;letter-spacing:0px;word-spacing:0px;fill:#000000;fill-opacity:1;stroke:none;font-family:Nimbus Roman No9 L;-inkscape-font-specification:Nimbus Roman No9 L"
       x="833.19958"
       y="929.8573"
       id="text4058-88"
       sodipodi:linespacing="125%"><tspan
         sodipodi:role="line"
         id="tspan4060-96"
         x="833.19958"
         y="929.8573"><tspan
           style="font-style:italic;-inkscape-font-specification:Nimbus Roman No9 L Italic"
           id="tspan4092-8">x</tspan><tspan
           style="font-size:65.00091553%;font-style:normal;font-variant:normal;font-weight:normal;font-stretch:normal;baseline-shift:sub;font-family:Nimbus Roman No9 L;-inkscape-font-specification:Nimbus Roman No9 L"
           id="tspan4062-8">3</tspan></tspan></text>
    <path
       style="fill:none;stroke:#000000;stroke-width:3;stroke-linecap:butt;stroke-linejoin:miter;stroke-miterlimit:4;stroke-opacity:1;stroke-dasharray:3, 3;stroke-dashoffset:0;marker-start:none"
       d="M 845.57143,888.6479 847,780.07647"
       id="path3820-3"
       inkscape:connector-curvature="0"
       sodipodi:nodetypes="cc" />
    <path
       style="fill:none;stroke:#000000;stroke-width:4.41156435;stroke-linecap:butt;stroke-linejoin:miter;stroke-miterlimit:4;stroke-opacity:1;stroke-dasharray:26.46938893, 4.41156482;stroke-dashoffset:0"
       d="m -188.9246,860.0769 1194.9921,0"
       id="path3050"
       inkscape:connector-curvature="0" />
    <path
       sodipodi:type="arc"
       style="fill:#ffffff;fill-opacity:1;stroke:#000000;stroke-width:16.81967163;stroke-miterlimit:4;stroke-opacity:1;stroke-dasharray:none;stroke-dashoffset:0"
       id="path3079"
       sodipodi:cx="-428.57144"
       sodipodi:cy="215.71428"
       sodipodi:rx="21.428572"
       sodipodi:ry="21.428572"
       d="m -407.14287,215.71428 c 0,11.83467 -9.5939,21.42857 -21.42857,21.42857 -11.83468,0 -21.42857,-9.5939 -21.42857,-21.42857 0,-11.83467 9.59389,-21.42857 21.42857,-21.42857 11.83467,0 21.42857,9.5939 21.42857,21.42857 z"
       transform="matrix(0.35672515,0,0,0.35672515,14.406839,783.41147)" />
    <path
       sodipodi:type="arc"
       style="fill:#ffffff;fill-opacity:1;stroke:#000000;stroke-width:16.81967163;stroke-miterlimit:4;stroke-opacity:1;stroke-dasharray:none;stroke-dashoffset:0"
       id="path3079-2"
       sodipodi:cx="-428.57144"
       sodipodi:cy="215.71428"
       sodipodi:rx="21.428572"
       sodipodi:ry="21.428572"
       d="m -407.14287,215.71428 c 0,11.83467 -9.5939,21.42857 -21.42857,21.42857 -11.83468,0 -21.42857,-9.5939 -21.42857,-21.42857 0,-11.83467 9.59389,-21.42857 21.42857,-21.42857 11.83467,0 21.42857,9.5939 21.42857,21.42857 z"
       transform="matrix(0.35672515,0,0,0.35672515,1072.9783,784.26862)" />
    <text
       xml:space="preserve"
       style="font-size:40px;font-style:normal;font-variant:normal;font-weight:normal;font-stretch:normal;line-height:125%;letter-spacing:0px;word-spacing:0px;fill:#000000;fill-opacity:1;stroke:none;font-family:Nimbus Roman No9 L;-inkscape-font-specification:Nimbus Roman No9 L"
       x="137.49161"
       y="419.13403"
       id="text4058-8-7-6"
       sodipodi:linespacing="125%"><tspan
         sodipodi:role="line"
         id="tspan4060-3-1-3"
         x="137.49161"
         y="419.13403"><tspan
           style="font-style:italic;-inkscape-font-specification:Nimbus Roman No9 L Italic"
           id="tspan4092-7-7-8">t<tspan
   style="font-size:65.00091553%;baseline-shift:sub"
   id="tspan6265">01</tspan>=0.536</tspan><tspan
           style="font-size:65.00091553%;font-style:normal;font-variant:normal;font-weight:normal;font-stretch:normal;baseline-shift:sub;font-family:Nimbus Roman No9 L;-inkscape-font-specification:Nimbus Roman No9 L"
           id="tspan4062-5-2-04" /></tspan></text>
    <text
       xml:space="preserve"
       style="font-size:40px;font-style:normal;font-variant:normal;font-weight:normal;font-stretch:normal;line-height:125%;letter-spacing:0px;word-spacing:0px;fill:#000000;fill-opacity:1;stroke:none;font-family:Nimbus Roman No9 L;-inkscape-font-specification:Nimbus Roman No9 L"
       x="461.88892"
       y="429.22504"
       id="text4058-8-7-7"
       sodipodi:linespacing="125%"><tspan
         sodipodi:role="line"
         id="tspan4060-3-1-8"
         x="461.88892"
         y="429.22504"><tspan
           style="font-style:italic;-inkscape-font-specification:Nimbus Roman No9 L Italic"
           id="tspan4092-7-7-7">t<tspan
   style="font-size:65.00091553%;baseline-shift:sub"
   id="tspan6265-9">12</tspan>=0.536+0.36=0.896</tspan></tspan></text>
  </g>
</svg>
